<?xml version="1.0" encoding="utf-8"?>
<!-- Generator: Adobe Illustrator 16.0.0, SVG Export Plug-In . SVG Version: 6.00 Build 0)  -->
<!DOCTYPE svg PUBLIC "-//W3C//DTD SVG 1.1//EN" "http://www.w3.org/Graphics/SVG/1.1/DTD/svg11.dtd">
<svg version="1.1" id="Layer_1" xmlns="http://www.w3.org/2000/svg" xmlns:xlink="http://www.w3.org/1999/xlink" x="0px" y="0px"
	 width="311.869px" height="193.05px" viewBox="0 0 311.869 193.05" enable-background="new 0 0 311.869 193.05"
	 xml:space="preserve">
<g>
	<g>
		<g>
			<linearGradient id="SVGID_1_" gradientUnits="userSpaceOnUse" x1="220.0381" y1="15.4858" x2="220.0381" y2="171.1036">
				<stop  offset="0" style="stop-color:#D6D6BA"/>
				<stop  offset="0.1395" style="stop-color:#C1BF9D"/>
				<stop  offset="0.2698" style="stop-color:#AAA77F"/>
				<stop  offset="0.3328" style="stop-color:#9C966E"/>
				<stop  offset="0.4583" style="stop-color:#847952"/>
				<stop  offset="0.5835" style="stop-color:#73643D"/>
				<stop  offset="0.7071" style="stop-color:#695831"/>
				<stop  offset="0.8273" style="stop-color:#66542D"/>
			</linearGradient>
			<path fill="url(#SVGID_1_)" d="M217.958,20.426L217.958,20.426c-0.076,0.024-40.232,11.182-48.416,41.82
				c-8.195,30.67-14.894,52.978,11.174,54.836c26.072,1.858,94.603,6.5,96.836-10.225c2.232-16.733-8.199-42.749-26.076-62.266
				C233.603,25.076,229.878,16.71,217.958,20.426z"/>
		</g>
		<g>
			<linearGradient id="SVGID_2_" gradientUnits="userSpaceOnUse" x1="225.1816" y1="58.6646" x2="234.9809" y2="11.4835">
				<stop  offset="0.1242" style="stop-color:#B34B63"/>
				<stop  offset="0.858" style="stop-color:#E39FAA"/>
			</linearGradient>
			<path fill="url(#SVGID_2_)" d="M177.913,45.792c1.515-1.85,1.308-3.07,2.16-5.203c0.998-2.48,2.326-2.576,4.16-3.506
				c1.559-0.781,2.795-1.942,4.267-3.277c1.95-1.775,1.906-3.322,2.943-6.13c0.642-1.743,1.798-6.571,3.8-6.676
				c3.438-0.167-2.069,5.2,1.604,3.493c-0.822,4.216,2.27,3.525,3.951,1.368c1.955-2.509,2.775-5.24,3.809-8.418
				c0.447-1.368,3.749-8.091,5.447-4.754c1.535,3.015-4.071,3.027,0.156,5.847c-3.286,0.841-0.646,3.859,1.902,2.707
				c1.742-0.789,3.612-3.242,4.008-5.507c1.578,0.259,3.779-1.128,2.512-3.254c1.604-1.882,3.497-0.116,4.422-3.8
				c0.574-2.289,0.279-5.635,1.743-7.598c1.763-2.356,2.947-0.51,2.764,2.042c-0.036,0.463-0.905,0.746-0.894,1.24
				c0.016,0.766,0.603,1.12,0.654,1.623c0.023,0.247,0.938,0.694,0.949,1.225c0.035,0.94-0.71,0.825-0.957,1.468
				c-0.498,1.295-2.879,4.992,0.479,4.669c1.112-0.104,0.98-0.929,1.695-1.755c1.211-1.396,0.996-1.172,2.28-1.811
				c0.929-0.462,1.336-0.027,2.165-1.088c0.734-0.941,0.332-2.501,1.289-3.311c2.125-1.79,3.182,0.782,2.34,2.924
				c-0.555,1.411-1.428,1.807-1.822,3.293c-0.1,0.383,0.327,1.488,0.256,2.059c-0.068,0.546-0.842,1.053-0.902,1.503
				c-0.358,2.68-0.418,4.749,0.623,6.896c-2.246,1.515,1.531,2.827,2.839,2.102c2.042-1.121,2.289-4.076,4.921-4.092
				c2.254-0.004,3.414,1.818,5.571-0.574c1.71-1.895,1.847-4.93,3.394-6.943c0.654-0.857,3.031-3.844,3.968-4.095
				c2.572-0.694,3.038,2.804,2.002,4.877c-1.288,2.6-3.302,3.087-3.286,6.444c0.023,3.289,1.148,4.159-1.562,6.209
				c-1.66,1.252-3.94,1.527-4.463,4.311c-0.243,1.268,0.26,1.596,0.291,2.561c0.008,0.271-0.027,2.376-0.012,2.472
				c0.303,1.994,0.339,2.229,1.826,3.438c1.316,1.073,1.623,2.189,3.561,0.599c1.715-1.4,2.178-3.977,4.398-4.686
				c1.48-0.475,4.08,0.107,3.98,2.628c-0.092,2.385-9.256,3.692-2.963,6.819c-1.822,1.794-0.402,6.014,1.292,5.79
				c-0.662,2.376,0.857,4.167,2.843,3.401c2.034-0.789,2.696-4.299,4.682-5.204c2.297-1.053,3.318,0.446,2.105,2.927
				c-1.021,2.082-4.342,3.267-4.749,5.843c-0.475,3.019,1.814,1.583,2.182,3.788c0.211,1.24-1.353,1.619-1.196,2.636
				c0.195,1.272,1.396,1.192,1.958,2.273c0.665,1.276,0.905,3.533,1.392,4.956c0.65,1.887,1.396,3.753,1.324,5.627
				c-0.088,0.048-0.407,0.367-0.486,0.475c-1.412-1.388-2.07-1.667-3.051-3.688c-0.711-1.468-1.129-4.228-2.473-5.044
				c-1.99-1.209-1.432,1.184-3.143,1.482c-2.316,0.396-1.196-1.981-1.87-3.625c-0.694,0.527-2.911,1.99-3.685,1.942
				c-2.496-0.151-1.225-2.444-1.46-4.638c-0.702-0.51-1.077-0.869-1.539-1.69c-0.985,1.044-2.88,1.436-4.052,1.643
				c-1.846,0.315-2.345,0.694-3.445-1.755c-1.097-2.432-0.471-3.991-0.107-6.443c0.395-2.629-0.168-3.183-1.121-5.504
				c-2.607,3.294-3.246-1.232-5.619-0.063c-0.318-1.667,0.818-3.904-0.175-5.487c-1.304,3.47-4.004,4.203-6.796,2.971
				c-3.883-1.719-2.99-7.947-6.129-9.363c-1.407-0.634-3.685,0.435-4.175,2.273c-0.559,2.062,1.388,3.298,1.128,4.965
				c-0.267,1.719-2.799,1.076-2.6,2.624c1.2,9.299-0.311,9.742-1.646,10.188c-1.34,0.446-4.467-1.487-5.209-3.569
				c-0.749-2.081-3.867-0.598-7.44,0.742s-2.735-3.916-2.735-3.916c-0.24-2.991,1.352-5.232-1.217-7.317
				c-0.455-0.367-2.341-1.416-2.823-1.117c-1.34,0.822-0.008,2.317-0.683,3.25c0.033,0.184,0.021,0.363-0.043,0.535
				c-1.28-0.826-3.414-0.619-4.414,0.98c-1.102,1.782,0.055,4.127-0.459,6.077c-0.702,2.656-1.771,2.222-3.282,1.739
				c0,0-2.497-2.907-4.435-0.08c-1.93,2.823-4.314,1.782-4.613,1.041c-0.295-0.746-1.185-1.787-0.89-3.127s-0.151-1.487-0.151-1.487
				S174.65,49.777,177.913,45.792z"/>
			<path fill="#B34B63" d="M224.358,21.396c-0.012,0.558-0.052,2.436-0.363,2.847c-0.741,0.989-1.895,0.595-3.051,1.32
				c-2.688,1.69-0.127,4.494-1.985,6.221c1.451,2.321-0.171,1.552-1.169,3.187c-1.164,1.91,2.094,2.979,1.46,4.506
				c-0.243,0.582-1.548,0.71-2.062,1.129c-0.934,0.77-1.755,2.121-2.113,3.189c-0.846,2.537,0.686,2.313,2.604,2.293
				c-0.1,0.507-0.147,1.113-0.534,1.611c3.333-0.035,0.271,2.672,0.511,4.295c0.311,2.098,3.932,2.576,3.138,0.279
				c0.846-0.307,1.472,0.26,2.077,0.81c1.699-1.464-1.18-2.285-0.801-3.601c0.331-1.157,2.999-1.408,3.178-3.115
				c0.24-2.285-4.749-4.825-0.578-7.022c0.969-0.51,3.856-0.486,4.794-0.14c1.399,0.522,1.95,2.725,3.899,1.404
				c1.137-0.77,0.599-1.284,0.503-2.121c-0.044-0.363-0.821-0.451-0.821-0.846c0-0.702,0.854-0.646,0.929-1.101
				c0.247-1.464-0.574-2.444-1.323-3.776c-2.346-4.156-4.331,1.204-6.783-1.181c-1.424-1.392-0.1-2.042,1.028-2.963
				c0.714-0.582,2.847-2.273,0.431-2.684c-0.068-0.646-0.136-0.862-0.423-1.476c3.351-0.295,0.339-2.819-0.312-3.689
				c0.938-1.199,0.79-2.424,0.424-3.796C227.015,16.977,224.526,14.796,224.358,21.396z"/>
			<path fill="#B34B63" d="M250.622,29.874c-0.379,0.482-0.61,0.327-0.71,1.16c-0.048,0.415,0.283,1.117,0.319,1.556
				c0.039,0.467-0.224,0.897-0.24,1.42c-0.008,0.275,0.191,1.18,0.195,1.403c0.041,1.152,0.045,1.2,0.619,2.548
				c1.275-1.826,2.855,1.847,0.49,3.299c1.459,1.076,0.689,1.85,0.031,3.102c-0.829,1.584-1.08,1.99-0.047,3.083
				c0.578,0.614,1.244-0.403,1.252,1.169c0.008,0.829-0.654,1.228-1.093,1.698c-1.013,1.089-1.878,1.265-1.87,3.17
				c0,0.786,0.605,1.544,0.467,2.333c-0.156,0.886-0.734,0.865-1.133,1.512c-0.439,0.722-0.371,0.817-0.574,1.403
				c-0.26,0.722,0.056,1.225-0.594,1.807c-1.173,1.061-2.019-0.263-2.193-1.603c-0.229-1.764,0.649-2.505,1.191-3.865
				c-1.854-0.525-0.08-2.751-1.85-3.35c-1.356-0.458-2.62,1.305-4.215,0.543c-2.122-1.018-1.6-2.58-1.44-4.622
				c0.116-1.416-1.097-4.314,0.742-4.274c-0.104-0.296,0.657,0.678,0.586,0.395c0.036,0.008,0.291-0.499,0.267-0.49
				c0.22-0.22,0.978-0.742,1.102-1.033c0.255-0.635-0.303-0.817-0.168-1.42c0.323-1.476,1.093-1.738,1.684-2.967
				c0.609-1.28,0.123-1.687,0.188-3.07c0.091-1.902,0.422-1.121,1.407-1.942c1.794-1.479,1.407-3.501,2.038-5.846
				c0.342-1.288,0.992-2.226,2.181-2.142c0.833,0.06,1.847,1.384,1.87,1.359C251.124,26.208,252.496,27.477,250.622,29.874z"/>
			<path fill="#B34B63" d="M194.609,25.419c-0.132,1.315,1.356,3.405-0.591,3.553c0.32,0.781-0.096,1.355-0.075,1.854
				c0.021,0.379,0.331,1.843,0.212,2.209c-0.352,1.141-2.118,2.05-2.66,3.497c-0.299,0.806-0.319,1.496-0.738,2.193
				c-0.502,0.834-1.229,1.129-1.646,2.09c-1.025,2.357,0.379,2.222,0.825,4.088c0.487,2.081-1.188,1.471-1.419,2.927
				c-0.096,0.61,0.701,1.021,0.682,1.763c-0.024,0.658-0.822,1.156-0.83,1.938c0,0.004,0.674,1.42,0.67,1.408
				c0.096,0.224-0.33,0.538-0.171,0.885c0.14,0.312,0.686,0.231,0.877,0.475c1.013,1.297,1.636,1.567,2.991,1.316
				c1.711-0.319,2.707-1.412,2.512-3.692c-0.088-1.033-0.821-1.858-0.638-2.932c0.167-0.993,1.384-0.793,0.81-2.288
				c1.053-1.229,3.76,1.116,4.869-0.838c0.806-1.424-0.73-1.962-0.643-2.943c0.124-1.416,1.193-1.312,1.803-2.536
				c0.379-0.777,0.662-2.628-0.234-3.126c-0.866-0.482-1.484,1.451-2.7,1.037c-1.464-0.499-0.706-1.532-0.966-2.736
				c-0.227-1.053-1.032-2.297-1.555-0.406c-1.463-0.997-0.482-2.361,0.215-3.441c1.014-1.584,0.723-1.324,0.399-3.311
				c-0.128-0.777-0.614-1.587-0.446-2.377c0.184-0.845,1.176-0.462,1.391-1.184c0.348-1.196-0.541-3.537-1.336-3.629
				C196.216,21.212,194.96,21.917,194.609,25.419z"/>
			<path fill="none" stroke="#B34B63" stroke-width="0.4069" stroke-miterlimit="10" d="M242.228,2.45c0,0-7.338,9.155-6.086,34.861
				c0,0,1.719-18.695,8.586-26.097"/>
			<path fill="none" stroke="#B34B63" stroke-width="0.4069" stroke-miterlimit="10" d="M269.704,35.755
				c-12.02,4.674-13.738,21.031-13.738,21.031s2.967-10.125,11.086-13.239"/>
			<path fill="none" stroke="#B34B63" stroke-width="0.4069" stroke-miterlimit="10" d="M190.087,23.293
				c-2.336,7.202,2.816,17.136,2.816,17.136s-5.935-6.037-5.775-10.711"/>
			<path fill="none" stroke="#B34B63" stroke-width="0.4069" stroke-miterlimit="10" d="M199.458,10.824
				c0,0-3.281,20.062,12.482,38.953"/>
		</g>
	</g>
	<g>
		<g>
			<linearGradient id="SVGID_3_" gradientUnits="userSpaceOnUse" x1="0" y1="113.4907" x2="191.542" y2="113.4907">
				<stop  offset="0" style="stop-color:#D6D6BA"/>
				<stop  offset="0.5172" style="stop-color:#C1BF9D"/>
				<stop  offset="1" style="stop-color:#AAA77F"/>
			</linearGradient>
			<path fill="url(#SVGID_3_)" d="M0.141,157.156c0,0-2.488-84.493,38.522-96.915c40.999-12.426,72.063-33.554,101.884-4.977
				c29.821,28.584,41.007,23.607,42.247,58.405c1.244,34.793,4.973,31.061,8.697,48.459C195.22,179.523-6.072,208.099,0.141,157.156
				z"/>
		</g>
		<g>
			<linearGradient id="SVGID_4_" gradientUnits="userSpaceOnUse" x1="100.4419" y1="92.4604" x2="123.2589" y2="33.9716">
				<stop  offset="0.1242" style="stop-color:#B34B63"/>
				<stop  offset="0.858" style="stop-color:#E39FAA"/>
			</linearGradient>
			<path fill="url(#SVGID_4_)" d="M41.438,56.365c-0.311-0.614,0.367-3.864,0.403-4.67c-0.754,0.072-1.754-0.251-2.488-0.14
				c0.088-0.503,0.175-1.104,0.323-1.583c-3.485,0.762-2.233,12.801-7.469,7.055c-3.071-3.366,0.626-13.2-2.202-11.365
				c-1.874,3.158-1.252,3.892-2.452,6.962c-1.192,3.063-3.214,2.182-4.694,4.396c-1.734,2.6,1.141,5.49,0.323,8.031
				c-0.726,2.24-3.92,1.993-2.975,5.076c0.511-0.008,1.109,0.131,1.615,0.14c-1.527,2.899-0.427,6.225,3.099,7.114
				c5.092,1.283,5.587-3.741,9.156-5.392c1.898-0.874,2.413,0.259,3.78,0.023c0.283-0.048,1.029,0.79,1.763,0.687
				c0.395-0.061,0.467-1.46,1.065-1.539c2.915-0.415,5.822-1.707,6.053,3.262c9.315-3.812,6.958,7.967,13.842,9.061
				c7.098,1.128,10.488-11.314,17.303-8.63c0.156-1.468,0.958-2.477,1.827-3.418c4.422,1.631,6.779,5.133,10.436,7.669
				c3.333,2.32,7.804,0.825,11.301-1.644c2.955-2.073,2.034-8.948,4.785-9.873c2.353-0.782,6.652,3.732,8.251,5.228
				c2.413-1.654,9.04-10.484,9.934-1.328c0.271,2.764-4.247,8.77-5.507,11.453c4.861,1.252,0.554,14.787,8.629,16.729
				c6.899,1.663,8.634-7.752,12.526-10.148c-0.044,0.626,0.191,1.412,0.16,2.041c1.216-0.625,2.728-1.057,4.207-1.164
				c0.367,5.99-1.882,9.926,6.488,8.837c5.531-0.714,6.703-5.499,11.242-6.799c-0.415,0.45-0.754,1.224-1.098,1.69
				c3.741-0.191,7.227-5.926,8.215,0.49c0.275,1.803-2.52,4.985,0.459,5.615c0.906,0.188,3.059-2.273,3.785-2.728
				c10.846-6.763,4.414,12.506,8.705,16.788c2.452-6.619,4.446-14.092-0.387-19.699c0.953-0.63,1.87-1.791,3.022-2.229
				c-9.618-6.563,20.122-8.434,9.646-15.636c-5.97-4.1-11.29,2.84-16.533,2.903c-3.481,0.036-2.102-1.795-3.884-2.708
				c-1.843-0.949-3.828-0.314-5.615-1.695c0.578-0.525,0.921-1.838,1.604-2.356c-6.959-3.346-0.236-4.406,2.305-7.401
				c-2.477-1.87-5.141-0.239-7.889-0.1c-3.113,0.164-4.139-0.016-6.958-1.631c-3.561-2.033-9.423-3.011-6.205-8.199
				c1.515-2.444,4.147-3.43,6.64-4.533c1.16-0.515,2.616-0.24,3.609-1.265c0.917-0.945,0.171-2.651,0.829-3.449
				c3.505-4.279,11.501-3.896,15.959-6.488c-1.479-4.391-10.433-1.659-13.438-0.354c-2.233,0.969-4.119,2.584-6.532,3.214
				c-2.026,0.526-3.996,0.147-5.738,0.431c-2.58,0.418-4.287,1.432-6.871,1.495c-0.973,0.024-1.611-1.141-2.592-1.005
				c-1.156,0.16-1.603,1.579-2.592,1.862c-4.965,1.42-7.992-1.164-12.913-0.94c1.236-2.939,1.531-3.856,4.215-6.022
				c2.153-1.738,4.267-1.962,3.964-5.495c2.01-1.128,4.003-1.583,5.599-3.055c0.056-0.048,1.419-2.48,1.731-2.915
				c0.482-0.674,2.325-1.013,2.508-1.901c1.595-7.645-9.659,3.262-9.998,3.421c-1.52,0.729-4.957-1.22-6.871-0.861
				c-2.417,0.463-4.191,2.065-6.428,3.868c-1.38,1.108-4.104,4.271-5.727,4.817c-1.156,0.383-4.678-0.953-6.476-0.813
				c1.368,4.131-4.562,5.715-7.022,2.891c-3.681,2.867-4.179-2.364-7.306-2.01c-1.547,0.176-0.885,3.37-4,2.492
				c-2.604-0.733-1.38-1.244-0.965-3.105c0.65-2.916,6.049-4.503,6.225-6.329c0.188-1.942-3.306-2.105-2.995-4.203
				c0.104-0.714,2.764-1.814,3.278-2.664c1.372-2.272-0.283-2.241-0.016-3.302c0.2-0.789,1.348-2.528,1.54-3.43
				c0.682-3.23,1.017-4.657,3.019-7.712c1.727-2.624,3.804-8.075-1.487-4.85c-2.815,1.723-2.138,6.7-5.491,6.812
				c0.646-9.116-4.255-2.113-5.715,2.647c-0.857,2.808-1.292,5.603-1.834,8.462c-0.255,1.34-0.147,5.83-0.866,6.867
				c-1.826,2.641-3.465,0.631-5.586,0.622c-2.844-0.008-4.419-0.096-6.943,2.465c-3.426,3.466-2.56,9.22-8.187,9.487
				c-0.156,1.064-0.582,0.98-0.937,1.694c-5.703-3.37-2.975,6.014-8.63,5.164c-0.61,5.675-4.717,1.304-7.465,2.469
				c0,0-1.998-1.619-1.998,0.247s-1.583,3.88-1.583,3.88s0.466,2.473-0.826,2.473C43.122,56.616,42.922,59.284,41.438,56.365z"/>
			<path fill="#B34B63" d="M145.157,90.552c0.71-2.27,0.016-2.668-0.57-4.909c-0.949-3.602,0.339-6.437-4.522-6.405
				c-0.271-2.787,3.055-9.239-1.615-8.669c0.144-1.145,0.961-4.45-0.135-5.331c-1.304-1.058-3.262,0.957-5.101,0.558
				c2.464-0.603-1.683-7.732,3.836-4.546c0.355-1.177,0.562-3.21,1.994-3.757c1.767-0.674,2.25,1.2,3.844-0.044
				c0.626-0.482-0.044-1.771,0.399-2.189c0.718-0.689,1.436-0.004,2.181-0.378c1.165-0.587,2.78-1.428,4.04-1.309
				c-0.85,2.13-5.719,3.454-3.757,5.476c-1.547,1.097-5.196,3.182-3.414,5.471c1.232,1.584,3.761-1.511,4.67,1.676
				c0.714,2.476-2.895,4.123,1.998,3.855c2.209-0.123,6.488-1.938,7.406,1.535c0.773,2.92-3.307,3.466-3.558,5.774
				c-0.303,2.827,2.492,3.397,1.364,6.775c-0.502,1.499-1.117,1.699-1.264,3.126c-0.104,0.974,0.885,1.783,0.319,3.047
				c-0.742,1.684-5.623,2.815-1.986,4.734c2.002,5.79-4.594,5.239-5.966,3.66C145.32,98.703,143.139,97.032,145.157,90.552z"/>
			<path fill="#B34B63" d="M128.759,39.767c-2.704,1.639-4.291,4.93-7.39,2.217c-1.005,0.922-1.148,2.03-2.173,3.023
				c-1.28,1.24-3.046,0.044-3.035,2.752c-2.376-1.248-1.998,1.045-3.386,1.989c-1.794,1.225-2.895,1.029-4.905,0.945
				c-3.425-0.144-9.619,0.722-4.79,4.821c-1.727,1.344-3.481,2.09-2.915,4.49c0.57,2.412,4.04,3.529,5.479,0.977
				c0.49-0.873-0.506-2.56,0.048-3.465c0.893-1.472,1.643-0.639,2.568-1.109c1.547-0.789,3.812-3.233,5.391-1.184
				c0.813-0.73,1.555-2.006,2.5-2.357c1.663-0.609,2.504,0.822,3.908,0.734c2.014-0.124,1.774-0.961,3.25-1.926
				c1.072-0.702,1.228-1.065,3.198-1.548c1.639-0.407,6.193-1.567,5.794-4.251c-0.351-2.32-4.534-1.52-2.225-5.782
				c-0.55-0.905-1.001-0.618-1.643-0.327"/>
			<path fill="#B34B63" d="M94.695,24.023c-3.637,2.473-2.289,7.179-7.665,6.796c0.268,2.165,0.574,3.083-1.005,4.53
				c-1.2,1.097-3.924,0.514-2.632,3.051c-1.603,0.729-3.609,0.047-4.969,1.447c0.646,0.359,0.989,1.168,1.527,1.539
				c-3.146,2.257-7.704,3.748-8.083,8.347c-0.634,7.685,3.525-0.806,5.738-0.702c0.458-2.584,3.701-3.254,2.385,0.144
				c-0.522,1.344-3.936,4.67,0.207,4.159c-1.694,2.034-0.558,4.479,0.036,6.68c0.403,1.527-0.427,3.621,1.926,3.864
				c1.898,0.191,2.273-1.388,2.265-2.896c-0.008-1.328-1.655-2.532-1.635-3.859c0.008-1.077,0.929-2.405,1.053-3.537
				c0.458-4.08-0.311-4.507,4.056-3.582c-0.056-0.925-0.223-2.751,0.363-3.473c1.304-1.627,2.014,0.111,3.198-0.319
				c3.222-1.173,1.479-3.593,4.917-2.588c1.982,0.582,1.145,1.839,3.473,0.969c1.037-0.383,1.308-1.69,2.552-2.006
				c1.428-0.37,1.679,1.021,3.306,0.164c0.686-0.363,1.484-2.019,1.871-2.656c-0.219-0.216-3.446-3.03-3.15-2.991
				c-1.854-0.234-2.488,1.994-4.538,1.644c-0.73-6.747-8.909,2.528-7.513-3.546c0.55-2.416,3.103-1.965,4.251-3.779
				c0.874-1.376-0.167-1.967-0.032-2.553c0.267-1.129,0.897-2.134,1.26-3.182C96.358,25.052,96.143,23.804,94.695,24.023"/>
			<path fill="none" stroke="#B34B63" stroke-width="0.5" stroke-miterlimit="10" d="M160.251,34.304
				c-32.78,9-29.243,43.387-29.243,43.387s4.817-26.674,35.67-28.604"/>
			<path fill="none" stroke="#B34B63" stroke-width="0.5" stroke-miterlimit="10" d="M182.745,70.617
				c-17.027-2.568-27.316,19.285-27.316,19.285s12.538-21.854,30.854-9.315"/>
			<path fill="none" stroke="#B34B63" stroke-width="0.5" stroke-miterlimit="10" d="M128.436,23.381
				c-35.994,6.747-35.671,47.878-35.671,47.878s-8.035-39.847,25.067-56.555"/>
			<path fill="none" stroke="#B34B63" stroke-width="0.5" stroke-miterlimit="10" d="M115.26,69.013c0,0-0.642-34.387,28.282-50.771
				"/>
			<path fill="none" stroke="#B34B63" stroke-width="0.5" stroke-miterlimit="10" d="M69.628,70.298
				c0,0-14.783-19.604-12.211-33.745"/>
			<path fill="none" stroke="#B34B63" stroke-width="0.5" stroke-miterlimit="10" d="M130.366,91.832
				c0,0,7.389-32.142,29.565-34.067"/>
			<path fill="none" stroke="#B34B63" stroke-width="0.5" stroke-miterlimit="10" d="M55.488,24.342
				c-20.565,22.173,4.498,50.772,4.498,50.772S37.171,50.052,44.884,34.946"/>
			<path fill="none" stroke="#B34B63" stroke-width="0.5" stroke-miterlimit="10" d="M76.375,23.058
				c-18.635,20.565-1.607,44.345-1.607,44.345s-15.102-21.207-8.032-36.632"/>
		</g>
	</g>
	<g>
		<g>
			<linearGradient id="SVGID_5_" gradientUnits="userSpaceOnUse" x1="232.5264" y1="79.0679" x2="232.5264" y2="250.2449">
				<stop  offset="0" style="stop-color:#D6D6BA"/>
				<stop  offset="0.1395" style="stop-color:#C1BF9D"/>
				<stop  offset="0.2698" style="stop-color:#AAA77F"/>
				<stop  offset="0.3328" style="stop-color:#9C966E"/>
				<stop  offset="0.4583" style="stop-color:#847952"/>
				<stop  offset="0.5835" style="stop-color:#73643D"/>
				<stop  offset="0.7071" style="stop-color:#695831"/>
				<stop  offset="0.8273" style="stop-color:#66542D"/>
			</linearGradient>
			<path fill="url(#SVGID_5_)" d="M229.674,84.502L229.674,84.502c-0.107,0.028-55.219,12.298-66.448,46.003
				c-11.246,33.736-20.445,58.273,15.333,60.315c35.782,2.042,129.83,7.158,132.901-11.246c3.062-18.399-11.25-47.023-35.783-68.49
				C251.14,89.615,246.028,80.415,229.674,84.502z"/>
		</g>
		<g>
			<linearGradient id="SVGID_6_" gradientUnits="userSpaceOnUse" x1="236.4307" y1="130.5845" x2="247.9997" y2="74.8821">
				<stop  offset="0.1242" style="stop-color:#B34B63"/>
				<stop  offset="0.858" style="stop-color:#E39FAA"/>
			</linearGradient>
			<path fill="url(#SVGID_6_)" d="M168.601,119.136c0.455-1.057,1.531-1.152,1.935-1.982c0.587-1.212,0.013-2.157,0.886-3.237
				c0.833-1.025,2.368-0.905,3.293-1.516c2.537-1.667,1.795-3.374,2.967-5.715c1.364-2.735,3.183-2.839,5.711-3.86
				c2.134-0.861,3.828-2.137,5.846-3.608c2.68-1.95,2.625-3.649,4.044-6.747c0.874-1.906,2.465-7.223,5.212-7.33
				c4.718-0.188-2.839,5.715,2.201,3.836c-1.124,4.643,3.115,3.881,5.424,1.504c2.684-2.756,3.812-5.767,5.232-9.252
				c0.613-1.512,5.136-8.908,7.477-5.231c2.109,3.31-5.591,3.329,0.211,6.424c-4.514,0.925-0.889,4.251,2.608,2.983
				c2.393-0.869,4.965-3.569,5.499-6.062c2.166,0.287,5.196-1.244,3.449-3.581c2.201-2.07,4.802-0.124,6.07-4.18
				c0.789-2.516,0.379-6.192,2.393-8.354c2.416-2.593,4.043-0.562,3.792,2.248c-0.048,0.503-1.244,0.818-1.224,1.356
				c0.023,0.85,0.824,1.24,0.893,1.786c0.036,0.275,1.284,0.766,1.309,1.348c0.043,1.041-0.978,0.918-1.316,1.615
				c-0.686,1.428-3.956,5.495,0.65,5.141c1.531-0.115,1.355-1.021,2.332-1.926c1.663-1.548,1.368-1.297,3.135-1.998
				c1.271-0.507,1.83-0.028,2.971-1.2c1.01-1.029,0.455-2.752,1.767-3.638c2.915-1.97,4.37,0.857,3.214,3.215
				c-0.762,1.551-1.953,1.99-2.504,3.621c-0.14,0.426,0.451,1.635,0.352,2.265c-0.096,0.606-1.157,1.165-1.236,1.659
				c-0.495,2.942-0.574,5.22,0.854,7.584c-3.083,1.668,2.098,3.107,3.899,2.313c2.8-1.236,3.134-4.494,6.751-4.498
				c3.091-0.013,4.689,1.989,7.641-0.638c2.35-2.09,2.541-5.424,4.662-7.641c0.901-0.941,4.155-4.231,5.447-4.507
				c3.529-0.758,4.172,3.095,2.748,5.372c-1.775,2.851-4.539,3.397-4.507,7.086c0.028,3.621,1.571,4.578-2.157,6.831
				c-2.27,1.376-5.403,1.683-6.121,4.741c-0.323,1.396,0.363,1.755,0.402,2.808c0.012,0.308-0.039,2.62-0.016,2.728
				c0.414,2.189,0.467,2.453,2.504,3.784c1.807,1.181,2.233,2.405,4.894,0.658c2.353-1.543,2.987-4.374,6.029-5.152
				c2.03-0.526,5.603,0.108,5.468,2.892c-0.128,2.611-12.705,4.056-4.068,7.497c-2.504,1.974-0.554,6.611,1.771,6.368
				c-0.902,2.612,1.176,4.586,3.903,3.74c2.796-0.869,3.696-4.729,6.429-5.727c3.154-1.152,4.55,0.491,2.883,3.219
				c-1.399,2.297-5.957,3.597-6.512,6.432c-0.65,3.318,2.48,1.739,2.994,4.168c0.283,1.359-1.857,1.782-1.643,2.898
				c0.268,1.4,1.914,1.312,2.688,2.501c0.91,1.403,1.24,3.88,1.91,5.455c0.886,2.069,1.906,4.124,1.818,6.185
				c-0.123,0.057-0.566,0.407-0.674,0.52c-1.934-1.52-2.843-1.831-4.188-4.053c-0.973-1.614-1.551-4.653-3.393-5.551
				c-2.729-1.332-1.963,1.305-4.314,1.627c-3.171,0.439-1.64-2.173-2.561-3.983c-0.957,0.578-4,2.189-5.061,2.138
				c-3.422-0.168-1.676-2.684-2.002-5.101c-0.965-0.562-1.476-0.961-2.117-1.854c-1.344,1.137-3.944,1.575-5.556,1.795
				c-2.532,0.351-3.218,0.77-4.733-1.922c-1.504-2.68-0.646-4.398-0.14-7.095c0.534-2.888-0.235-3.497-1.539-6.054
				c-3.581,3.629-4.466-1.352-7.712-0.06c-0.443-1.843,1.116-4.299-0.24-6.05c-1.798,3.828-5.494,4.63-9.331,3.271
				c-5.327-1.891-4.104-8.737-8.41-10.297c-1.931-0.702-5.053,0.482-5.734,2.497c-0.762,2.272,1.91,3.633,1.556,5.463
				c-0.367,1.895-2.848,1.271-3.574,2.887c-0.498,1.105,2.222,3.812-1.228,3.286c4.175,4.698-0.235,15.505-7.099,11.198
				c-3.174-1.986-4.227-5.045-6.428-0.319c-1.068,2.293-0.71,4.646-3.525,5.124c-3.824,0.658-6.814-3.386-6.448-6.831
				c0.208-1.922,1.635-3.233,2.018-5.076c0.423-2.054-0.486-1.882-0.661-3.589c-0.332-3.29,1.854-5.763-1.672-8.052
				c-0.621-0.407-3.21-1.556-3.867-1.228c-1.848,0.904-0.017,2.552-0.941,3.572c0.047,0.207,0.027,0.407-0.064,0.59
				c-1.75-0.908-4.686-0.682-6.045,1.085c-1.523,1.962,0.067,4.538-0.639,6.68c-0.965,2.923-2.428,2.448-4.51,1.914
				c-1.742-0.446-4.722-2.429-4.151,1.169c-4.282-3.426-5.905,1.711-9.024,3.597c-4.219,2.556-5.902-0.559-7.126-4.056
				c-1.005,0.184-1.906,0.926-2.517,1.902C170.212,124.962,165.3,126.765,168.601,119.136z"/>
			<path fill="#B34B63" d="M241.526,84.267c-0.104,0.605-0.467,2.636-0.838,3.019c-0.901,0.933-1.963,0.287-3.223,0.854
				c-2.927,1.319-0.893,4.845-3.019,6.364c1.032,2.792-0.431,1.643-1.69,3.227c-1.472,1.85,1.543,3.625,0.662,5.156
				c-0.34,0.59-1.635,0.479-2.209,0.837c-1.053,0.658-2.09,1.966-2.625,3.059c-1.26,2.584,0.271,2.636,2.162,2.979
				c-0.184,0.526-0.336,1.176-0.802,1.643c3.274,0.586-0.195,2.947-0.235,4.754c-0.061,2.324,3.41,3.537,3.027,0.893
				c0.881-0.176,1.395,0.555,1.897,1.269c1.914-1.265-0.766-2.696-0.171-4.052c0.529-1.188,3.186-0.957,3.652-2.771
				c0.626-2.433-3.832-6.133,0.639-7.717c1.04-0.37,3.863,0.199,4.725,0.754c1.28,0.83,1.439,3.318,3.581,2.262
				c1.249-0.614,0.81-1.284,0.857-2.21c0.021-0.395-0.729-0.642-0.661-1.068c0.123-0.762,0.948-0.542,1.1-1.021
				c0.49-1.531-0.146-2.748-0.65-4.339c-1.586-4.949-4.449,0.486-6.443-2.564c-1.16-1.774,0.251-2.229,1.516-3.015
				c0.797-0.494,3.178-1.922,0.877-2.827c0.044-0.71,0.012-0.957-0.152-1.675c3.326,0.307,0.807-2.999,0.324-4.061
				c1.124-1.124,1.188-2.472,1.064-4.031C244.892,79.984,242.821,77.149,241.526,84.267z"/>
			<path fill="#B34B63" d="M274.501,94.894c-0.522,0.527-0.838,0.359-0.973,1.276c-0.068,0.45,0.391,1.229,0.438,1.715
				c0.049,0.511-0.311,0.981-0.33,1.56c-0.012,0.303,0.263,1.296,0.267,1.543c0.06,1.268,0.063,1.324,0.85,2.799
				c1.755-2.01,3.92,2.034,0.678,3.638c1.998,1.181,0.938,2.029,0.036,3.409c-1.137,1.734-1.476,2.189-0.064,3.39
				c0.794,0.674,1.711-0.446,1.727,1.284c0.009,0.913-0.904,1.348-1.507,1.87c-1.384,1.2-2.58,1.392-2.567,3.481
				c0,0.869,0.833,1.703,0.642,2.572c-0.212,0.977-1.005,0.945-1.548,1.658c-0.605,0.794-0.514,0.902-0.797,1.54
				c-0.359,0.806,0.08,1.352-0.814,1.993c-1.61,1.165-2.771-0.291-3.01-1.77c-0.312-1.931,0.893-2.748,1.635-4.243
				c-2.545-0.583-0.104-3.027-2.541-3.688c-1.857-0.499-3.588,1.439-5.781,0.598c-2.912-1.117-2.193-2.84-1.971-5.088
				c0.152-1.552-1.507-4.738,1.014-4.698c-0.141-0.327,0.904,0.746,0.801,0.438c0.057,0.004,0.407-0.546,0.371-0.546
				c0.299-0.239,1.344-0.817,1.512-1.133c0.354-0.694-0.419-0.901-0.239-1.556c0.454-1.631,1.511-1.914,2.317-3.27
				c0.837-1.403,0.171-1.854,0.258-3.378c0.133-2.089,0.575-1.228,1.935-2.138c2.456-1.627,1.931-3.852,2.792-6.428
				c0.475-1.416,1.363-2.448,2.994-2.356c1.148,0.063,2.537,1.515,2.572,1.495C275.194,90.863,277.077,92.254,274.501,94.894z"/>
			<path fill="#B34B63" d="M197.624,89.994c-0.176,1.451,1.866,3.748-0.81,3.908c0.442,0.861-0.132,1.495-0.1,2.045
				c0.028,0.407,0.45,2.026,0.291,2.425c-0.486,1.257-2.911,2.257-3.653,3.845c-0.414,0.889-0.441,1.65-1.016,2.416
				c-0.687,0.918-1.68,1.24-2.258,2.305c-1.408,2.593,0.522,2.441,1.133,4.49c0.674,2.289-1.635,1.619-1.946,3.219
				c-0.132,0.67,0.966,1.125,0.933,1.938c-0.035,0.727-1.12,1.272-1.132,2.138c0,0.004,0.913,1.556,0.909,1.552
				c0.14,0.239-0.451,0.578-0.231,0.973c0.196,0.339,0.945,0.251,1.208,0.519c1.385,1.42,2.242,1.723,4.1,1.443
				c2.35-0.347,3.713-1.556,3.445-4.063c-0.119-1.133-1.124-2.042-0.873-3.227c0.235-1.088,1.902-0.869,1.113-2.512
				c1.451-1.352,5.156,1.232,6.68-0.917c1.107-1.571-1.002-2.165-0.882-3.246c0.175-1.556,1.647-1.439,2.472-2.788
				c0.531-0.857,0.914-2.887-0.314-3.434c-1.188-0.534-2.037,1.596-3.709,1.137c-2.006-0.542-0.969-1.683-1.324-3.006
				c-0.311-1.161-1.415-2.529-2.137-0.447c-2.01-1.097-0.654-2.596,0.299-3.792c1.393-1.735,0.985-1.452,0.547-3.638
				c-0.172-0.857-0.846-1.746-0.606-2.615c0.247-0.93,1.614-0.503,1.906-1.305c0.479-1.312-0.746-3.884-1.839-3.991
				C199.829,85.364,198.103,86.141,197.624,89.994z"/>
			<path fill="none" stroke="#B34B63" stroke-width="0.5" stroke-miterlimit="10" d="M229.562,58.729c0,0-15.425,24.21-3.43,58.704
				c0,0-5.786-28.065,5.355-48.85"/>
			<path fill="none" stroke="#B34B63" stroke-width="0.5" stroke-miterlimit="10" d="M262.983,64.731
				c0,0-10.068,10.065-8.354,38.351c0,0,2.356-20.569,11.783-28.712"/>
			<path fill="none" stroke="#B34B63" stroke-width="0.5" stroke-miterlimit="10" d="M261.48,112.078
				c0,0-4.278-31.068,18.001-43.706"/>
			<path fill="none" stroke="#B34B63" stroke-width="0.5" stroke-miterlimit="10" d="M300.692,101.367
				c-16.502,5.141-18.854,23.137-18.854,23.137s4.066-11.146,15.209-14.567"/>
			<path fill="none" stroke="#B34B63" stroke-width="0.5" stroke-miterlimit="10" d="M191.423,87.657
				c-3.21,7.924,3.856,18.851,3.856,18.851s-8.14-6.645-7.928-11.78"/>
			<path fill="none" stroke="#B34B63" stroke-width="0.5" stroke-miterlimit="10" d="M204.28,73.943c0,0-4.498,22.064,17.139,42.845
				"/>
		</g>
	</g>
</g>
</svg>
