<?xml version="1.0" encoding="utf-8"?>
<!-- Generator: Adobe Illustrator 16.0.0, SVG Export Plug-In . SVG Version: 6.00 Build 0)  -->
<!DOCTYPE svg PUBLIC "-//W3C//DTD SVG 1.1//EN" "http://www.w3.org/Graphics/SVG/1.1/DTD/svg11.dtd">
<svg version="1.1" id="Layer_1" xmlns="http://www.w3.org/2000/svg" xmlns:xlink="http://www.w3.org/1999/xlink" x="0px" y="0px"
	 width="297.614px" height="295.557px" viewBox="0 0 297.614 295.557" enable-background="new 0 0 297.614 295.557"
	 xml:space="preserve">
<g>
	<g>
		<path fill="none" stroke="#FFFFFF" stroke-width="0.2591" stroke-miterlimit="10" d="M200.618,54.059
			c-2.025,22.646-11.585,40.859-11.585,40.859s1.833-37.957,12.635-54.253"/>
		<path fill="none" stroke="#FFFFFF" stroke-width="0.2591" stroke-miterlimit="10" d="M221.296,121.088
			c0,0,15.248-9.189,40.816-4.532"/>
		<path fill="none" stroke="#FFFFFF" stroke-width="0.2591" stroke-miterlimit="10" d="M216.257,129.143
			c0,0,5.615-1.45,23.531,4.052"/>
		<path fill="none" stroke="#FFFFFF" stroke-width="0.2591" stroke-miterlimit="10" d="M177.995,113.141
			c0,0,8.192-23.477-15.096-51.218"/>
		<path fill="none" stroke="#FFFFFF" stroke-width="0.2591" stroke-miterlimit="10" d="M269.149,0
			c-0.008,68.239-32.934,82.019-32.934,82.019s30.125-23.176,24.348-65.934"/>
		<path fill="none" stroke="#FFFFFF" stroke-width="0.2591" stroke-miterlimit="10" d="M297.586,56.402
			c0,0-44.657,10.037-61.606,27.15"/>
		<g>
			
				<linearGradient id="SVGID_1_" gradientUnits="userSpaceOnUse" x1="133.437" y1="183.2969" x2="124.8462" y2="165.8727" gradientTransform="matrix(0.3833 0.9236 -0.9236 0.3833 352.6566 -111.2)">
				<stop  offset="0" style="stop-color:#F1E8E8;stop-opacity:0"/>
				<stop  offset="1" style="stop-color:#F1E8E8"/>
			</linearGradient>
			<path fill="url(#SVGID_1_)" d="M236.643,83.293c0,0,10.755-5.622,14.453-18.837c0,0-0.755-2.174-4.074-2.237
				c0,0-4.067,12.948-11.694,16.641L236.643,83.293z"/>
			
				<linearGradient id="SVGID_2_" gradientUnits="userSpaceOnUse" x1="144.2944" y1="193.3818" x2="113.0676" y2="174.5005" gradientTransform="matrix(0.2499 0.9682 -0.9682 0.2499 376.9911 -106.6092)">
				<stop  offset="0" style="stop-color:#F1E8E8;stop-opacity:0"/>
				<stop  offset="1" style="stop-color:#F1E8E8"/>
			</linearGradient>
			<path opacity="0.6" fill="url(#SVGID_2_)" d="M234.233,78.071c0,0,11.768-23.815,7.712-47.927c0,0-22.073,21.389-23.149,57.526
				L234.233,78.071z"/>
			
				<linearGradient id="SVGID_3_" gradientUnits="userSpaceOnUse" x1="145.4307" y1="194.3271" x2="117.8999" y2="177.6806" gradientTransform="matrix(0.2499 0.9682 -0.9682 0.2499 376.9911 -106.6092)">
				<stop  offset="0" style="stop-color:#F1E8E8;stop-opacity:0"/>
				<stop  offset="1" style="stop-color:#F1E8E8"/>
			</linearGradient>
			<path opacity="0.8" fill="url(#SVGID_3_)" d="M212.575,86.344c12.402-36.197,32.872-46.982,32.872-46.982
				c0.772,28.806-11.88,40.955-11.88,40.955L212.575,86.344z"/>
			<path fill="none" stroke="#FFFFFF" stroke-width="0.2591" stroke-miterlimit="10" d="M223.417,83.798
				c0,0,7.861-25.933,4.25-51.564"/>
			<path fill="#EE4036" d="M251.813,64.42c-0.222,0.474-1.592,0.306-3.064-0.364c-1.48-0.679-2.5-1.611-2.281-2.082
				c0.223-0.469,1.584-0.306,3.059,0.365C251.005,63.013,252.024,63.946,251.813,64.42z"/>
		</g>
		<g>
			
				<linearGradient id="SVGID_4_" gradientUnits="userSpaceOnUse" x1="276.6973" y1="147.4517" x2="268.105" y2="130.0246" gradientTransform="matrix(-0.7883 -0.6153 -0.6153 0.7883 543.2472 139.2709)">
				<stop  offset="0" style="stop-color:#F1E8E8;stop-opacity:0"/>
				<stop  offset="1" style="stop-color:#F1E8E8"/>
			</linearGradient>
			<path fill="url(#SVGID_4_)" d="M234.015,82.94c0,0,8.287-8.878,22.001-8.925c0,0,1.903,1.301,1.072,4.521
				c0,0-13.558,0.471-19.151,6.848L234.015,82.94z"/>
			
				<linearGradient id="SVGID_5_" gradientUnits="userSpaceOnUse" x1="280.8438" y1="137.7451" x2="249.6159" y2="118.8632" gradientTransform="matrix(-0.8668 -0.4986 -0.4986 0.8668 545.051 114.4938)">
				<stop  offset="0" style="stop-color:#F1E8E8;stop-opacity:0"/>
				<stop  offset="1" style="stop-color:#F1E8E8"/>
			</linearGradient>
			<path opacity="0.6" fill="url(#SVGID_5_)" d="M238.409,86.646c0,0,26.087-5.007,48.251,5.317c0,0-26.493,15.583-61.618,7.005
				L238.409,86.646z"/>
			
				<linearGradient id="SVGID_6_" gradientUnits="userSpaceOnUse" x1="281.9727" y1="138.6904" x2="254.4478" y2="122.0475" gradientTransform="matrix(-0.8668 -0.4986 -0.4986 0.8668 545.051 114.4938)">
				<stop  offset="0" style="stop-color:#F1E8E8;stop-opacity:0"/>
				<stop  offset="1" style="stop-color:#F1E8E8"/>
			</linearGradient>
			<path opacity="0.8" fill="url(#SVGID_6_)" d="M224.675,105.321c38.188-2.331,54.027-19.181,54.027-19.181
				c-27.559-8.409-42.639,0.55-42.639,0.55L224.675,105.321z"/>
			<path fill="none" stroke="#FFFFFF" stroke-width="0.2591" stroke-miterlimit="10" d="M230.013,95.546
				c0,0,27.088-0.678,50.832,9.618"/>
			<path fill="#EE4036" d="M256.249,73.334c-0.514,0.081-0.718,1.447-0.467,3.047c0.266,1.604,0.893,2.834,1.406,2.755
				c0.5-0.088,0.711-1.443,0.453-3.055C257.386,74.482,256.759,73.261,256.249,73.334z"/>
		</g>
		<g>
			<polygon fill="#F1E8E8" points="241.358,73.009 229.153,67.038 226.944,78.973 236.216,82.019 			"/>
			<path fill="#3B2314" d="M241.642,72.762c-1.418,2.492-5.298,2.968-8.654,1.058c-3.361-1.922-4.941-5.493-3.517-7.978
				c1.418-2.505,5.295-2.972,8.655-1.058C241.487,66.701,243.057,70.266,241.642,72.762z"/>
		</g>
		<g>
			<polygon fill="#F1E8E8" points="249.951,81.774 251.792,95.232 239.763,93.581 239.78,83.817 			"/>
			<path fill="#3B2314" d="M250.272,81.574c-2.814,0.572-4.479,4.103-3.718,7.894c0.767,3.786,3.667,6.406,6.476,5.841
				c2.813-0.564,4.477-4.094,3.721-7.894C255.979,83.627,253.085,81.008,250.272,81.574z"/>
		</g>
		<g>
			<path fill="#F1E8E8" d="M166.581,132.175c-0.696-0.267-10.481-3.899-10.951-5.978c0,0-16.083,9.837-20.273,9.67
				c0,0,10.634-0.107,19.949-5.679c0,0,4.33,4.759,8.691,9.345L166.581,132.175z"/>
			<path fill="#F1E8E8" d="M162.394,136.396l-1.133-27.317c0,0-3.221-12.249-12.252-18.664c0,0,10.137,4.374,15.991,18.653
				l2.201,24.699L162.394,136.396z"/>
			<path fill="#F1E8E8" d="M174.06,126.724c0,0-5.252-14.582-6.814-16.993c0,0-23.58-9.282-40.542-3.782
				c0,0,25.293-2.221,38.981,7.937l4.184,16.166L174.06,126.724z"/>
			<path fill="#F1E8E8" d="M174.089,120.525c0,0,0.652-29.414-12.326-52.129c0,0,11.319,24.27,6.918,53.709L174.089,120.525z"/>
			
				<linearGradient id="SVGID_7_" gradientUnits="userSpaceOnUse" x1="152.5088" y1="276.6055" x2="150.0601" y2="274.973" gradientTransform="matrix(0.2499 0.9682 -0.9682 0.2499 376.9911 -106.6092)">
				<stop  offset="0" style="stop-color:#F1E8E8;stop-opacity:0"/>
				<stop  offset="1" style="stop-color:#F1E8E8"/>
			</linearGradient>
			<path fill="url(#SVGID_7_)" d="M129.54,106.995c0,0,6.479-1.391,11.499-1.562c5.01-0.167,22.095,5.362,22.095,5.362
				s5.648,6.982-4.581,3.996C153.009,113.173,143.721,107.087,129.54,106.995z"/>
			
				<linearGradient id="SVGID_8_" gradientUnits="userSpaceOnUse" x1="233.2549" y1="201.9834" x2="231.0069" y2="200.4847" gradientTransform="matrix(-0.7793 0.6267 -0.6267 -0.7793 474.3354 102.8937)">
				<stop  offset="0" style="stop-color:#F1E8E8;stop-opacity:0"/>
				<stop  offset="1" style="stop-color:#F1E8E8"/>
			</linearGradient>
			<path fill="url(#SVGID_8_)" d="M161.173,67.24c0,0,3.881,6.684,5.849,13.176c1.454,4.801,4.217,22.343,4.217,22.343
				s-0.94,31.773-6.159-2.216C164.616,97.495,167.966,82.502,161.173,67.24z"/>
			
				<linearGradient id="SVGID_9_" gradientUnits="userSpaceOnUse" x1="249.6816" y1="242.3721" x2="246.5874" y2="240.3092" gradientTransform="matrix(-0.4597 0.6746 -0.6846 -0.4665 439.8762 54.8424)">
				<stop  offset="0" style="stop-color:#F1E8E8;stop-opacity:0"/>
				<stop  offset="1" style="stop-color:#F1E8E8"/>
			</linearGradient>
			<path fill="url(#SVGID_9_)" d="M147.234,89.011c0,0,4.212,3.471,7.263,6.298c10.459,9.688,16.613,34.148,16.613,34.148
				s-3.596,12.084-10-13.816C159.962,111.005,154.944,97.856,147.234,89.011z"/>
			
				<linearGradient id="SVGID_10_" gradientUnits="userSpaceOnUse" x1="176.9746" y1="280.7939" x2="174.0706" y2="280.4309" gradientTransform="matrix(0.2499 0.9682 -0.9682 0.2499 376.9911 -106.6092)">
				<stop  offset="0" style="stop-color:#F1E8E8;stop-opacity:0"/>
				<stop  offset="1" style="stop-color:#F1E8E8"/>
			</linearGradient>
			<path fill="url(#SVGID_10_)" d="M163.501,134.507l-8.571-5.659c0,0-12.754,6.289-19.613,7.314c0,0,10.896,1.06,16.815-0.714
				C158.042,133.672,163.501,134.507,163.501,134.507z"/>
		</g>
		<g>
			<path fill="#F1E8E8" d="M184.351,142.106c0.35,0.651,5.025,9.988,7.135,10.225c0,0-8.023,17.056-7.396,21.211
				c0,0-1.062-10.581,3.469-20.447c0,0-5.203-3.785-10.233-7.613L184.351,142.106z"/>
			<path fill="#F1E8E8" d="M180.61,146.724l27.286-1.852c0,0,12.525,1.865,19.888,10.151c0,0-5.459-9.612-20.293-13.866
				l-24.788,0.507L180.61,146.724z"/>
			<path fill="#F1E8E8" d="M188.957,134.065c0,0,15.068,3.648,17.638,4.929c0,0,11.801,22.438,8.179,39.886
				c0,0-0.547-25.387-12.14-37.891l-16.527-2.383L188.957,134.065z"/>
			<path fill="#F1E8E8" d="M195.12,133.367c0,0,29.164-3.856,53.155,6.569c0,0-25.354-8.607-54.151-1.026L195.12,133.367z"/>
			
				<linearGradient id="SVGID_11_" gradientUnits="userSpaceOnUse" x1="315.1035" y1="163.5703" x2="312.6513" y2="161.9355" gradientTransform="matrix(-0.9898 -0.1429 -0.1429 0.9898 543.5896 42.0026)">
				<stop  offset="0" style="stop-color:#F1E8E8;stop-opacity:0"/>
				<stop  offset="1" style="stop-color:#F1E8E8"/>
			</linearGradient>
			<path fill="url(#SVGID_11_)" d="M213.417,176.184c0,0,0.686-6.597,0.303-11.612c-0.379-4.995-7.733-21.38-7.733-21.38
				s-7.562-4.854-3.481,5.005C204.715,153.524,211.784,162.094,213.417,176.184z"/>
			
				<linearGradient id="SVGID_12_" gradientUnits="userSpaceOnUse" x1="199.0918" y1="6.2954" x2="196.8422" y2="4.7957" gradientTransform="matrix(-0.538 0.843 0.843 0.538 326.4852 -32.9398)">
				<stop  offset="0" style="stop-color:#F1E8E8;stop-opacity:0"/>
				<stop  offset="1" style="stop-color:#F1E8E8"/>
			</linearGradient>
			<path fill="url(#SVGID_12_)" d="M249.491,140.396c0,0-7.072-3.135-13.727-4.369c-4.931-0.926-22.684-1.768-22.684-1.768
				s-31.486,4.401,2.881,5.878C219.044,140.268,233.569,135.31,249.491,140.396z"/>
			
				<linearGradient id="SVGID_13_" gradientUnits="userSpaceOnUse" x1="279.0186" y1="4.3066" x2="275.9249" y2="2.2442" gradientTransform="matrix(-0.6204 0.5305 0.5383 0.6297 377.7778 -3.6642)">
				<stop  offset="0" style="stop-color:#F1E8E8;stop-opacity:0"/>
				<stop  offset="1" style="stop-color:#F1E8E8"/>
			</linearGradient>
			<path fill="url(#SVGID_13_)" d="M229.372,156.624c0,0-3.914-3.808-7.047-6.529c-10.777-9.342-35.767-12.803-35.767-12.803
				s-11.618,4.904,14.829,8.445C206.122,146.38,219.737,149.919,229.372,156.624z"/>
			
				<linearGradient id="SVGID_14_" gradientUnits="userSpaceOnUse" x1="339.5693" y1="167.7549" x2="336.6653" y2="167.3919" gradientTransform="matrix(-0.9898 -0.1429 -0.1429 0.9898 543.5896 42.0026)">
				<stop  offset="0" style="stop-color:#F1E8E8;stop-opacity:0"/>
				<stop  offset="1" style="stop-color:#F1E8E8"/>
			</linearGradient>
			<path fill="url(#SVGID_14_)" d="M182.368,145.411l6.561,7.919c0,0-4.862,13.354-5.125,20.287c0,0-2.244-10.725-1.125-16.799
				C183.804,150.753,182.368,145.411,182.368,145.411z"/>
		</g>
		<path fill="#F1E8E8" d="M223.438,79.045c0,0-27.863,10.185-34.405,15.873c-6.522,5.69-15.71,17.559-19.693,34.086l14.21,15.336
			c0,0,23.388-4.293,32.893-12.992c9.504-8.714,18.024-22.152,22.81-33.634C244.044,86.221,239.22,75.95,223.438,79.045z"/>
		<path fill="#F1E8E8" d="M173.618,122.334c0,0-43.159,35.198-78.081,82.957c0,0,3.033,5.968,11.933,9.424
			c0,0,40.823-24.159,81.126-74.311L173.618,122.334z"/>
		<g>
			
				<linearGradient id="SVGID_15_" gradientUnits="userSpaceOnUse" x1="241.4121" y1="390.3047" x2="251.1842" y2="378.0895" gradientTransform="matrix(0.2499 0.9682 -0.9682 0.2499 376.9911 -106.6092)">
				<stop  offset="0.0086" style="stop-color:#FFFFFF;stop-opacity:0"/>
				<stop  offset="1" style="stop-color:#F1E8E8"/>
			</linearGradient>
			<path fill="url(#SVGID_15_)" d="M98.892,203.285c0,0-26.221,7.468-33.673,14.803c-7.453,7.327-7.979,27.413-12.196,42.804
				c0,0,30.59-23.406,51.124-49.617L98.892,203.285z"/>
			
				<linearGradient id="SVGID_16_" gradientUnits="userSpaceOnUse" x1="261.2705" y1="394.0547" x2="257.4849" y2="373.345" gradientTransform="matrix(0.2499 0.9682 -0.9682 0.2499 376.9911 -106.6092)">
				<stop  offset="0.0086" style="stop-color:#FFFFFF;stop-opacity:0"/>
				<stop  offset="1" style="stop-color:#F1E8E8"/>
			</linearGradient>
			<path opacity="0.8" fill="url(#SVGID_16_)" d="M92.482,215.121c0,0-26.56,30.041-28.392,43.795
				c-1.827,13.739,25.749-11.968,43.247-50.494c0.039-0.067,0.065-0.111,0.084-0.174l-3.821-3.84L92.482,215.121z"/>
			
				<linearGradient id="SVGID_17_" gradientUnits="userSpaceOnUse" x1="275.6875" y1="390.7051" x2="259.7885" y2="358.1925" gradientTransform="matrix(0.2499 0.9682 -0.9682 0.2499 376.9911 -106.6092)">
				<stop  offset="0.0086" style="stop-color:#FFFFFF;stop-opacity:0"/>
				<stop  offset="1" style="stop-color:#F1E8E8"/>
			</linearGradient>
			<path fill="url(#SVGID_17_)" d="M104.241,208.548c0,0-27.54,40.059-29.913,46.086c-2.38,6.027,0.252,11.498,0.965,13.28
				c0,0,21.522-15.561,25.515-21.021c4.005-5.459,10.186-39.847,10.186-39.847L104.241,208.548z"/>
			<path fill="none" stroke="#FFFFFF" stroke-width="0.2591" stroke-miterlimit="10" d="M61.91,250.47
				c16.782-37.912,39.371-45.774,39.371-45.774s-31.149,1.915-51.661,13.956"/>
			<path fill="none" stroke="#FFFFFF" stroke-width="0.2591" stroke-miterlimit="10" d="M69.199,267.472
				c36.982-14.303,38.127-56.639,38.127-56.639S92.292,250.798,69.199,267.472z"/>
			<path opacity="0.8" fill="#EE4036" d="M88.916,222.161c-0.77,0.207-1.565-0.264-1.766-1.043c-0.202-0.777,0.27-1.567,1.035-1.775
				c0.784-0.196,1.575,0.28,1.773,1.039C90.167,221.173,89.695,221.962,88.916,222.161z"/>
			<path fill="#EE4036" d="M98.928,235.619c-0.476,0.126-0.97-0.169-1.099-0.648c-0.129-0.486,0.171-0.985,0.655-1.114
				c0.482-0.125,0.981,0.173,1.104,0.654C99.721,234.995,99.424,235.497,98.928,235.619z"/>
			<path opacity="0.8" fill="#BE1E2D" d="M82.25,239.028c-0.354,0.085-0.703-0.119-0.803-0.47c-0.087-0.351,0.126-0.71,0.478-0.802
				c0.35-0.096,0.699,0.124,0.798,0.475C82.817,238.576,82.6,238.935,82.25,239.028z"/>
			<path fill="none" stroke="#FFFFFF" stroke-width="0.2591" stroke-miterlimit="10" d="M58.542,264.347
				c26.917-18.703,48.495-52.273,48.495-52.273s9.816,31.492-9.089,53.956"/>
			
				<linearGradient id="SVGID_18_" gradientUnits="userSpaceOnUse" x1="238.5547" y1="344.7539" x2="231.5417" y2="335.0595" gradientTransform="matrix(0.2499 0.9682 -0.9682 0.2499 376.9911 -106.6092)">
				<stop  offset="0.0086" style="stop-color:#EE4036"/>
				<stop  offset="1" style="stop-color:#BE1E2D"/>
			</linearGradient>
			<path fill="url(#SVGID_18_)" d="M103.006,195.495l-8.63,9.668c0,0,4.253,0.966-1.111,9.027c0,0,15.122-9.96,8.706,4.635
				c0,0,7.251-6.752,6.699,0.077l9.241-11.072c0,0-10.913,1.275-4.271-8.568C113.64,199.262,101.921,206.919,103.006,195.495z"/>
			<path fill="#BE1E2D" d="M101.91,213.026c-1.16,0.303-2.356-0.399-2.657-1.566c-0.301-1.159,0.399-2.354,1.564-2.653
				c1.169-0.302,2.358,0.404,2.666,1.567C103.775,211.536,103.073,212.724,101.91,213.026z"/>
			<path fill="#BE1E2D" d="M106.999,219.81c-1.454,0.163-2.783-0.879-2.946-2.336c-0.171-1.465,0.874-2.781,2.333-2.956
				c1.454-0.163,2.784,0.878,2.95,2.341C109.506,218.311,108.46,219.64,106.999,219.81z"/>
			<path fill="#EE4036" d="M103.135,219.554c-0.898,0.238-1.796-0.31-2.033-1.195c-0.228-0.896,0.304-1.803,1.195-2.037
				c0.897-0.226,1.804,0.314,2.028,1.202C104.559,218.423,104.021,219.328,103.135,219.554z"/>
			<path opacity="0.8" fill="#EE4036" d="M94.678,212.815c-0.772,0.197-1.561-0.269-1.766-1.039
				c-0.202-0.779,0.27-1.573,1.034-1.774c0.778-0.196,1.573,0.271,1.783,1.051C95.926,211.817,95.453,212.614,94.678,212.815z"/>
			<path fill="#BE1E2D" d="M95.538,216.284c-1.172,0.311-2.359-0.396-2.661-1.561c-0.304-1.172,0.399-2.357,1.565-2.658
				c1.165-0.299,2.353,0.397,2.657,1.571C97.399,214.794,96.698,215.985,95.538,216.284z"/>
		</g>
		
			<radialGradient id="SVGID_19_" cx="136.2119" cy="207.959" r="16.1452" gradientTransform="matrix(-0.6345 -0.7429 1.5987 -1.3654 -47.203 502.4449)" gradientUnits="userSpaceOnUse">
			<stop  offset="0.1881" style="stop-color:#EED56A"/>
			<stop  offset="0.3384" style="stop-color:#EED87C"/>
			<stop  offset="0.6405" style="stop-color:#F0DFAB"/>
			<stop  offset="0.9843" style="stop-color:#F1E8E8"/>
		</radialGradient>
		<path fill="url(#SVGID_19_)" d="M213.753,131.529c-16.902,14.454-36.473,19.289-43.695,10.838
			c-7.227-8.461,0.623-27.025,17.529-41.469c16.902-14.431,36.473-19.284,43.695-10.822
			C238.505,98.531,230.655,117.098,213.753,131.529z"/>
		<g>
			<path fill="#BE1E2D" d="M203.845,121.412c-3.103,0.361-5.92-1.872-6.287-4.98c-0.364-3.098,1.865-5.925,4.979-6.279
				c3.107-0.36,5.926,1.862,6.283,4.971C209.183,118.232,206.952,121.053,203.845,121.412z"/>
			<path fill="#BE1E2D" d="M189.161,129.54c-2.711,0.32-5.186-1.635-5.504-4.359c-0.312-2.714,1.647-5.182,4.356-5.506
				c2.718-0.311,5.186,1.651,5.506,4.366C193.83,126.761,191.88,129.224,189.161,129.54z"/>
			<path opacity="0.8" fill="#BE1E2D" d="M199.935,130.4c-3.966,0.462-7.588-2.398-8.047-6.381c-0.464-3.98,2.397-7.597,6.377-8.061
				c3.979-0.46,7.602,2.397,8.057,6.375C206.784,126.321,203.921,129.934,199.935,130.4z"/>
			<path opacity="0.8" fill="#BE1E2D" d="M191.734,115.709c-2.701,0.31-5.161-1.626-5.46-4.328
				c-0.316-2.698,1.622-5.152,4.323-5.471c2.696-0.306,5.145,1.63,5.462,4.333C196.362,112.937,194.435,115.394,191.734,115.709z"/>
			<path fill="#EE4036" d="M196.968,132.677c-1.626,0.191-3.105-0.983-3.295-2.612c-0.186-1.628,0.977-3.108,2.602-3.295
				c1.633-0.192,3.112,0.979,3.309,2.61C199.765,131.013,198.593,132.489,196.968,132.677z"/>
			<path fill="#EE4036" d="M183.089,128.544c-1.813,0.212-3.461-1.094-3.669-2.892c-0.208-1.823,1.097-3.463,2.903-3.674
				c1.809-0.22,3.455,1.086,3.675,2.899C186.198,126.69,184.897,128.341,183.089,128.544z"/>
			<path fill="#EE4036" d="M177.022,147.452c-1.49-0.168-2.584-1.51-2.432-3.01c0.168-1.493,1.512-2.584,3.018-2.422
				c1.491,0.162,2.584,1.508,2.416,3.008C179.868,146.516,178.513,147.612,177.022,147.452z"/>
			<path fill="#BE1E2D" d="M174.417,146.737c-0.935,0.104-1.801-0.564-1.906-1.508c-0.109-0.94,0.557-1.799,1.504-1.902
				c0.941-0.114,1.801,0.572,1.906,1.5C176.042,145.774,175.356,146.628,174.417,146.737z"/>
			<path fill="#BE1E2D" d="M178.854,134.758c-0.846,0.097-1.617-0.513-1.713-1.358c-0.098-0.846,0.504-1.622,1.355-1.716
				c0.85-0.106,1.619,0.513,1.713,1.354C180.31,133.881,179.7,134.655,178.854,134.758z"/>
			<path fill="#BE1E2D" d="M189.868,139.904c-2.227,0.255-4.268-1.348-4.525-3.586c-0.26-2.241,1.34-4.271,3.586-4.533
				c2.236-0.26,4.271,1.352,4.533,3.598C193.716,137.611,192.106,139.643,189.868,139.904z"/>
			<path fill="#BE1E2D" d="M206.835,127.905c-1.304,0.148-2.499-0.793-2.666-2.107c-0.144-1.32,0.798-2.507,2.12-2.668
				c1.312-0.146,2.501,0.794,2.668,2.117C209.103,126.562,208.155,127.748,206.835,127.905z"/>
			<path fill="#BE1E2D" d="M179.067,120.404c-0.916,0.108-1.762-0.553-1.863-1.48c-0.112-0.922,0.551-1.764,1.469-1.869
				c0.934-0.108,1.774,0.558,1.873,1.483C180.655,119.457,179.991,120.299,179.067,120.404z"/>
			<path fill="#EE4036" d="M168.942,153.63c-0.918,0.104-1.764-0.561-1.873-1.493c-0.109-0.925,0.561-1.773,1.494-1.882
				c0.922-0.106,1.764,0.563,1.877,1.492C170.542,152.674,169.876,153.513,168.942,153.63z"/>
			<path fill="#EE4036" d="M116.22,198.632c-1.507,0.183-2.892-0.91-3.055-2.42c-0.175-1.512,0.905-2.894,2.418-3.068
				c1.507-0.167,2.887,0.918,3.058,2.427C118.812,197.076,117.727,198.446,116.22,198.632z"/>
			<path fill="#BE1E2D" d="M164.616,160.393c-0.758,0.091-1.449-0.46-1.537-1.226c-0.088-0.765,0.455-1.453,1.221-1.54
				c0.762-0.084,1.457,0.456,1.553,1.22C165.933,159.617,165.386,160.297,164.616,160.393z"/>
			<path fill="#BE1E2D" d="M115.856,193.877c-0.766,0.083-1.461-0.464-1.549-1.229c-0.08-0.762,0.463-1.457,1.228-1.541
				c0.765-0.084,1.465,0.457,1.545,1.221C117.172,193.098,116.625,193.782,115.856,193.877z"/>
			<path fill="#EE4036" d="M153.272,170.345c-0.605,0.07-1.158-0.368-1.232-0.977c-0.065-0.611,0.379-1.169,0.977-1.232
				c0.613-0.064,1.17,0.365,1.244,0.975C154.329,169.722,153.889,170.266,153.272,170.345z"/>
			<path fill="#EE4036" d="M122.204,195.28c-0.605,0.068-1.161-0.373-1.233-0.98c-0.068-0.605,0.366-1.163,0.978-1.229
				c0.605-0.073,1.161,0.358,1.237,0.978C123.247,194.657,122.813,195.205,122.204,195.28z"/>
			<path fill="#EE4036" d="M130.961,180.431c-0.448,0.053-0.86-0.274-0.918-0.734c-0.055-0.455,0.269-0.874,0.736-0.922
				c0.459-0.055,0.867,0.269,0.921,0.735C131.749,179.962,131.428,180.373,130.961,180.431z"/>
			<path fill="#3B2314" d="M228.054,108.749c-2.814,2.543-8.543,0.805-12.789-3.888c-4.238-4.698-5.396-10.565-2.58-13.117
				c2.818-2.54,8.546-0.801,12.788,3.892C229.71,100.327,230.866,106.202,228.054,108.749z"/>
			<path fill="#EE4036" d="M187.754,117.193c-1.202,0.136-2.304-0.732-2.441-1.936c-0.142-1.202,0.729-2.295,1.929-2.441
				c1.209-0.136,2.306,0.728,2.451,1.939C189.832,115.951,188.957,117.051,187.754,117.193z"/>
			<path fill="#EE4036" d="M182.659,140.066c-0.98,0.115-1.869-0.588-1.975-1.573c-0.123-0.983,0.572-1.871,1.553-1.989
				c0.987-0.108,1.881,0.599,1.994,1.574C184.351,139.066,183.64,139.956,182.659,140.066z"/>
			<path fill="#EE4036" d="M175.911,137.167c-1.634,0.19-3.119-0.991-3.312-2.623c-0.189-1.637,0.99-3.116,2.627-3.313
				c1.633-0.192,3.119,0.988,3.309,2.621C178.735,135.492,177.551,136.978,175.911,137.167z"/>
			<path fill="#EE4036" d="M168.418,143.588c-0.722,0.084-1.378-0.432-1.458-1.158c-0.088-0.719,0.438-1.377,1.148-1.456
				c0.729-0.09,1.389,0.437,1.465,1.15C169.657,142.845,169.144,143.509,168.418,143.588z"/>
			<path fill="#EE4036" d="M211.21,113.129c-0.824,0.1-1.575-0.499-1.678-1.322c-0.09-0.827,0.496-1.575,1.334-1.681
				c0.824-0.087,1.574,0.5,1.67,1.327C212.63,112.283,212.04,113.036,211.21,113.129z"/>
			<path fill="#EE4036" d="M212.678,127.431c-0.471,0.054-0.894-0.281-0.958-0.767c-0.055-0.467,0.283-0.896,0.758-0.946
				c0.477-0.062,0.907,0.283,0.961,0.761C213.489,126.942,213.155,127.374,212.678,127.431z"/>
			<path fill="#EE4036" d="M200.451,94.333c-0.415,0.046-0.802-0.248-0.846-0.672c-0.055-0.418,0.255-0.806,0.678-0.852
				c0.409-0.048,0.806,0.246,0.846,0.675C201.177,93.903,200.874,94.288,200.451,94.333z"/>
			<path fill="#EE4036" d="M217.047,112.314c-0.419,0.042-0.795-0.253-0.856-0.679c-0.039-0.42,0.262-0.801,0.686-0.847
				c0.42-0.051,0.805,0.245,0.855,0.676C217.769,111.88,217.478,112.259,217.047,112.314z"/>
			<path fill="#EE4036" d="M207.856,130.646c-1.035,0.122-1.99-0.622-2.107-1.652c-0.123-1.058,0.621-2.005,1.67-2.126
				c1.043-0.124,1.993,0.632,2.113,1.674C209.642,129.572,208.897,130.528,207.856,130.646z"/>
			<path fill="#EE4036" d="M194.271,121.632c-1.195,0.142-2.289-0.726-2.432-1.932c-0.152-1.207,0.723-2.303,1.928-2.441
				c1.21-0.143,2.301,0.72,2.445,1.936C196.348,120.396,195.48,121.493,194.271,121.632z"/>
			<path fill="#EE4036" d="M200.933,109.938c-1.67,0.204-3.193-1-3.383-2.678c-0.196-1.674,1.01-3.19,2.676-3.379
				c1.67-0.197,3.191,0.998,3.377,2.675C203.804,108.228,202.594,109.741,200.933,109.938z"/>
			<path fill="#EE4036" d="M210.685,121.293c-1.881,0.215-3.597-1.137-3.812-3.014c-0.215-1.885,1.137-3.598,3.025-3.806
				c1.881-0.236,3.578,1.118,3.808,3.012C213.913,119.361,212.564,121.071,210.685,121.293z"/>
			<path fill="#EE4036" d="M201.835,101.852c-0.877,0.097-1.689-0.544-1.791-1.431c-0.109-0.888,0.535-1.693,1.424-1.792
				c0.886-0.098,1.688,0.525,1.793,1.422C203.359,100.94,202.726,101.739,201.835,101.852z"/>
		</g>
		<g>
			<path fill="#EE4036" d="M177.997,137.751c0,0-1.145,1.052-3.145,2.894c-2.008,1.833-4.849,4.483-8.228,7.694
				c-1.692,1.602-3.527,3.336-5.468,5.171c-1.926,1.85-4.021,3.732-6.049,5.828c-1.988,2.137-4.24,4.136-6.448,6.252
				c-2.242,2.081-4.52,4.194-6.797,6.309c-2.288,2.104-4.546,4.238-6.767,6.342c-2.198,2.127-4.361,4.22-6.455,6.245
				c-2.041,2.078-4.014,4.088-5.884,5.993c-1.886,1.89-3.67,3.676-5.317,5.324c-6.575,6.606-11.003,10.97-11.002,10.97l-0.073-0.068
				c0,0,4.319-4.468,10.865-11.108c3.262-3.332,7.073-7.214,11.227-11.299c2.11-2.01,4.29-4.086,6.505-6.196
				c2.193-2.133,4.418-4.302,6.614-6.502c2.207-2.189,4.413-4.38,6.584-6.535c1.095-1.068,2.181-2.129,3.254-3.176
				c1.093-1.027,2.216-1.995,3.337-2.93c2.229-1.884,4.247-3.848,6.222-5.646c1.961-1.812,3.815-3.527,5.526-5.109
				c6.857-6.315,11.43-10.525,11.43-10.525L177.997,137.751z"/>
		</g>
	</g>
	<g>
		<path fill="none" stroke="#FFFFFF" stroke-width="0.2591" stroke-miterlimit="10" d="M177.653,190.837
			c3.725,8.659,3.832,17.178,3.832,17.178s-6.82-14.192-6.094-22.261"/>
		<path fill="none" stroke="#FFFFFF" stroke-width="0.2591" stroke-miterlimit="10" d="M198.401,211.193
			c0,0,3.75-6.354,13.988-9.701"/>
		<path fill="none" stroke="#FFFFFF" stroke-width="0.2591" stroke-miterlimit="10" d="M198.157,215.121c0,0,1.76-1.637,9.374-3.161
			"/>
		<path fill="none" stroke="#FFFFFF" stroke-width="0.2591" stroke-miterlimit="10" d="M181.058,216.835
			c0,0-1.648-10.173-15.604-15.691"/>
		<path fill="none" stroke="#FFFFFF" stroke-width="0.2591" stroke-miterlimit="10" d="M191.97,157.622
			c13.456,24.873,4.172,36.39,4.172,36.39s6.41-14.39-4.129-28.834"/>
		<path fill="none" stroke="#FFFFFF" stroke-width="0.2591" stroke-miterlimit="10" d="M213.46,172.575
			c0,0-14.303,12.458-17.104,22.042"/>
		<g>
			
				<linearGradient id="SVGID_20_" gradientUnits="userSpaceOnUse" x1="491.1709" y1="325.4717" x2="487.6095" y2="318.2484" gradientTransform="matrix(0.7766 0.63 -0.63 0.7766 19.157 -367.7245)">
				<stop  offset="0" style="stop-color:#F1E8E8;stop-opacity:0"/>
				<stop  offset="1" style="stop-color:#F1E8E8"/>
			</linearGradient>
			<path fill="url(#SVGID_20_)" d="M196.546,194.396c0,0,2.809-4.178,1.555-9.719c0,0-0.705-0.644-1.928-0.014
				c0,0,1.07,5.518-0.982,8.372L196.546,194.396z"/>
			
				<linearGradient id="SVGID_21_" gradientUnits="userSpaceOnUse" x1="519.5791" y1="279.0576" x2="506.6406" y2="271.2343" gradientTransform="matrix(0.6806 0.7327 -0.7327 0.6806 43.0879 -374.7525)">
				<stop  offset="0" style="stop-color:#F1E8E8;stop-opacity:0"/>
				<stop  offset="1" style="stop-color:#F1E8E8"/>
			</linearGradient>
			<path opacity="0.6" fill="url(#SVGID_21_)" d="M194.639,192.962c0,0-0.407-11-6.642-18.99c0,0-3.828,12.151,2.908,25.528
				L194.639,192.962z"/>
			
				<linearGradient id="SVGID_22_" gradientUnits="userSpaceOnUse" x1="520.0547" y1="279.4541" x2="508.6484" y2="272.5573" gradientTransform="matrix(0.6806 0.7327 -0.7327 0.6806 43.0879 -374.7525)">
				<stop  offset="0" style="stop-color:#F1E8E8;stop-opacity:0"/>
				<stop  offset="1" style="stop-color:#F1E8E8"/>
			</linearGradient>
			<path opacity="0.8" fill="url(#SVGID_22_)" d="M188.373,200.25c-2.616-15.639,2.722-23.604,2.722-23.604
				c5.957,10.343,3.746,17.266,3.746,17.266L188.373,200.25z"/>
			<path fill="none" stroke="#FFFFFF" stroke-width="0.2591" stroke-miterlimit="10" d="M191.825,197.184
				c0,0-2.246-11.007-8.622-19.632"/>
			<path fill="#EE4036" d="M198.356,184.521c0.01,0.218-0.523,0.422-1.193,0.47c-0.67,0.046-1.227-0.096-1.238-0.308
				c-0.015-0.218,0.516-0.419,1.184-0.471C197.781,184.169,198.339,184.311,198.356,184.521z"/>
		</g>
		<g>
			
				<linearGradient id="SVGID_23_" gradientUnits="userSpaceOnUse" x1="36.6348" y1="445.6572" x2="33.0737" y2="438.4347" gradientTransform="matrix(-0.9861 -0.166 -0.166 0.9861 306.2427 -237.8372)">
				<stop  offset="0" style="stop-color:#F1E8E8;stop-opacity:0"/>
				<stop  offset="1" style="stop-color:#F1E8E8"/>
			</linearGradient>
			<path fill="url(#SVGID_23_)" d="M195.517,194.778c0,0,1.272-4.868,6.262-7.591c0,0,0.949,0.099,1.284,1.436
				c0,0-4.85,2.845-5.634,6.275L195.517,194.778z"/>
			
				<linearGradient id="SVGID_24_" gradientUnits="userSpaceOnUse" x1="86.2373" y1="461.8457" x2="73.2978" y2="454.0218" gradientTransform="matrix(-0.9997 -0.0261 -0.0261 0.9997 295.5356 -260.4657)">
				<stop  offset="0" style="stop-color:#F1E8E8;stop-opacity:0"/>
				<stop  offset="1" style="stop-color:#F1E8E8"/>
			</linearGradient>
			<path opacity="0.6" fill="url(#SVGID_24_)" d="M197.85,195.267c0,0,8.521-6.969,18.636-7.582c0,0-6.58,10.905-21.074,14.705
				L197.85,195.267z"/>
			
				<linearGradient id="SVGID_25_" gradientUnits="userSpaceOnUse" x1="86.71" y1="462.2402" x2="75.3032" y2="455.3431" gradientTransform="matrix(-0.9997 -0.0261 -0.0261 0.9997 295.5356 -260.4657)">
				<stop  offset="0" style="stop-color:#F1E8E8;stop-opacity:0"/>
				<stop  offset="1" style="stop-color:#F1E8E8"/>
			</linearGradient>
			<path opacity="0.8" fill="url(#SVGID_25_)" d="M196.525,204.78c13.464-8.378,15.911-17.646,15.911-17.646
				c-11.701,2.372-15.436,8.605-15.436,8.605L196.525,204.78z"/>
			<path fill="none" stroke="#FFFFFF" stroke-width="0.2591" stroke-miterlimit="10" d="M196.546,200.169
				c0,0,9.738-5.592,20.424-6.521"/>
			<path fill="#EE4036" d="M201.726,186.899c-0.17,0.129,0.028,0.661,0.436,1.201c0.413,0.528,0.879,0.856,1.055,0.721
				c0.168-0.125-0.025-0.664-0.439-1.2C202.364,187.09,201.896,186.767,201.726,186.899z"/>
		</g>
		<g>
			<polygon fill="#F1E8E8" points="196.233,189.714 190.608,189.94 192.158,194.727 196.142,194.012 			"/>
			<path fill="#3B2314" d="M196.29,189.567c-0.023,1.188-1.344,2.127-2.947,2.093c-1.6-0.037-2.881-1.028-2.854-2.219
				c0.021-1.188,1.346-2.121,2.948-2.089C195.037,187.388,196.315,188.38,196.29,189.567z"/>
		</g>
		<g>
			<polygon fill="#F1E8E8" points="201.097,191.214 204.421,195.757 199.712,197.531 197.791,193.962 			"/>
			<path fill="#3B2314" d="M201.175,191.079c-0.912,0.765-0.82,2.374,0.203,3.609c1.027,1.229,2.596,1.611,3.51,0.85
				c0.916-0.762,0.824-2.377-0.197-3.605C203.663,190.7,202.089,190.316,201.175,191.079z"/>
		</g>
		<g>
			<path fill="#F1E8E8" d="M180.648,226.026c-0.304,0.035-4.591,0.641-5.169-0.025c0,0-3.922,6.761-5.482,7.524
				c0,0,3.852-2.134,6.148-6.004c0,0,2.52,0.883,5.012,1.692L180.648,226.026z"/>
			<path fill="#F1E8E8" d="M179.956,228.387l-5.801-9.729c0,0-3.591-3.829-8.148-4.39c0,0,4.561-0.405,9.507,3.645l5.677,8.571
				L179.956,228.387z"/>
			<path fill="#F1E8E8" d="M182.301,222.559c0,0-4.792-4.274-5.835-4.848c0,0-10.426,1.27-15.524,6.614
				c0,0,8.782-5.797,15.776-4.791l4.711,5.069L182.301,222.559z"/>
			<path fill="#F1E8E8" d="M181.089,220.299c0,0-5.562-10.854-14.773-16.569c0,0,8.916,6.607,13.111,18.208L181.089,220.299z"/>
			
				<linearGradient id="SVGID_26_" gradientUnits="userSpaceOnUse" x1="522.9873" y1="313.5479" x2="521.973" y2="312.8716" gradientTransform="matrix(0.6806 0.7327 -0.7327 0.6806 43.0879 -374.7525)">
				<stop  offset="0" style="stop-color:#F1E8E8;stop-opacity:0"/>
				<stop  offset="1" style="stop-color:#F1E8E8"/>
			</linearGradient>
			<path fill="url(#SVGID_26_)" d="M162.183,224.149c0,0,2.086-1.783,3.885-2.836c1.797-1.052,9.111-2.402,9.111-2.402
				s3.434,1.429-0.885,2.359C171.956,221.776,167.368,221.388,162.183,224.149z"/>
			
				<linearGradient id="SVGID_27_" gradientUnits="userSpaceOnUse" x1="435.8086" y1="-122.418" x2="434.8759" y2="-123.0398" gradientTransform="matrix(-0.3872 0.922 -0.922 -0.3872 228.3381 -237.8284)">
				<stop  offset="0" style="stop-color:#F1E8E8;stop-opacity:0"/>
				<stop  offset="1" style="stop-color:#F1E8E8"/>
			</linearGradient>
			<path fill="url(#SVGID_27_)" d="M165.872,203.419c0,0,2.736,1.67,4.728,3.647c1.48,1.47,5.948,7.312,5.948,7.312
				s5.918,11.772-2.681,0.411C173.097,213.771,171.36,207.646,165.872,203.419z"/>
			
				<linearGradient id="SVGID_28_" gradientUnits="userSpaceOnUse" x1="589.0811" y1="-58.3965" x2="587.7991" y2="-59.2511" gradientTransform="matrix(-0.0833 0.812 -0.8241 -0.0846 174.5828 -263.802)">
				<stop  offset="0" style="stop-color:#F1E8E8;stop-opacity:0"/>
				<stop  offset="1" style="stop-color:#F1E8E8"/>
			</linearGradient>
			<path fill="url(#SVGID_28_)" d="M165.087,214.106c0,0,2.219,0.434,3.889,0.864c5.723,1.468,12.789,9.168,12.789,9.168
				s1.067,5.114-6.369-3.064C174.062,219.61,169.64,215.806,165.087,214.106z"/>
			
				<linearGradient id="SVGID_29_" gradientUnits="userSpaceOnUse" x1="533.125" y1="315.2842" x2="531.9213" y2="315.1337" gradientTransform="matrix(0.6806 0.7327 -0.7327 0.6806 43.0879 -374.7525)">
				<stop  offset="0" style="stop-color:#F1E8E8;stop-opacity:0"/>
				<stop  offset="1" style="stop-color:#F1E8E8"/>
			</linearGradient>
			<path fill="url(#SVGID_29_)" d="M179.986,227.481l-4.241-0.372c0,0-3.41,4.808-5.705,6.533c0,0,4.18-1.768,5.988-3.577
				C177.833,228.253,179.986,227.481,179.986,227.481z"/>
		</g>
		<g>
			<path fill="#F1E8E8" d="M189.081,226.136c0.257,0.175,3.805,2.653,4.617,2.322c0,0,0.439,7.8,1.488,9.188
				c0,0-2.473-3.651-2.768-8.136c0,0-2.646-0.354-5.234-0.759L189.081,226.136z"/>
			<path fill="#F1E8E8" d="M188.629,228.557l9.583-6.056c0,0,4.93-1.781,9.25-0.22c0,0-3.883-2.423-10.133-1.054l-8.932,5.078
				L188.629,228.557z"/>
			<path fill="#F1E8E8" d="M189.179,222.298c0,0,6.211-1.645,7.395-1.678c0,0,8.729,5.848,10.85,12.927
				c0,0-5.205-9.148-11.895-11.421l-6.492,2.388L189.179,222.298z"/>
			<path fill="#F1E8E8" d="M191.282,220.83c0,0,9.873-7.156,20.674-8.082c0,0-10.938,1.858-19.943,10.294L191.282,220.83z"/>
			
				<linearGradient id="SVGID_30_" gradientUnits="userSpaceOnUse" x1="246.1113" y1="497.6025" x2="245.0954" y2="496.9252" gradientTransform="matrix(-0.9385 0.3453 0.3453 0.9385 260.2976 -324.4523)">
				<stop  offset="0" style="stop-color:#F1E8E8;stop-opacity:0"/>
				<stop  offset="1" style="stop-color:#F1E8E8"/>
			</linearGradient>
			<path fill="url(#SVGID_30_)" d="M206.399,232.827c0,0-1.059-2.538-2.182-4.291c-1.122-1.75-7.035-6.27-7.035-6.27
				s-3.709-0.278-0.279,2.509C198.757,226.282,203.023,228.015,206.399,232.827z"/>
			
				<linearGradient id="SVGID_31_" gradientUnits="userSpaceOnUse" x1="489.1523" y1="205.7441" x2="488.2209" y2="205.1232" gradientTransform="matrix(-0.0721 0.9975 0.9975 0.0721 33.0811 -285.9606)">
				<stop  offset="0" style="stop-color:#F1E8E8;stop-opacity:0"/>
				<stop  offset="1" style="stop-color:#F1E8E8"/>
			</linearGradient>
			<path fill="url(#SVGID_31_)" d="M212.487,212.669c0,0-3.193,0.251-5.865,1.115c-1.982,0.635-8.615,3.829-8.615,3.829
				s-10.605,7.812,2.215,1.571C201.364,218.625,205.685,213.959,212.487,212.669z"/>
			
				<linearGradient id="SVGID_32_" gradientUnits="userSpaceOnUse" x1="534.1104" y1="340.2002" x2="532.8293" y2="339.3462" gradientTransform="matrix(-0.2933 0.7619 0.7731 0.2977 91.9608 -284.7111)">
				<stop  offset="0" style="stop-color:#F1E8E8;stop-opacity:0"/>
				<stop  offset="1" style="stop-color:#F1E8E8"/>
			</linearGradient>
			<path fill="url(#SVGID_32_)" d="M208.354,222.553c0,0-2.173-0.617-3.854-0.99c-5.77-1.276-15.562,2.389-15.562,2.389
				s-3.264,4.074,7.072,0.153C197.858,223.401,203.521,222.012,208.354,222.553z"/>
			
				<linearGradient id="SVGID_33_" gradientUnits="userSpaceOnUse" x1="256.2539" y1="499.3369" x2="255.0502" y2="499.1865" gradientTransform="matrix(-0.9385 0.3453 0.3453 0.9385 260.2976 -324.4523)">
				<stop  offset="0" style="stop-color:#F1E8E8;stop-opacity:0"/>
				<stop  offset="1" style="stop-color:#F1E8E8"/>
			</linearGradient>
			<path fill="url(#SVGID_33_)" d="M189.011,227.733l3.953,1.593c0,0,0.865,5.826,2.135,8.407c0,0-2.932-3.466-3.728-5.901
				C190.585,229.396,189.011,227.733,189.011,227.733z"/>
		</g>
		<path fill="#F1E8E8" d="M190.898,195.449c0,0-8.147,9.205-9.413,12.565c-1.256,3.359-2.264,9.502-0.457,16.308l8.199,2.787
			c0,0,7.686-6.176,9.432-11.218c1.748-5.048,2.202-11.632,1.682-16.765C199.824,194,196.036,191.207,190.898,195.449z"/>
		<path fill="#F1E8E8" d="M181.272,221.046c0,0-8.789,21.343-12.096,45.634c0,0,2.275,1.582,6.203,1.081
			c0,0,10.115-16.854,14.916-43.077L181.272,221.046z"/>
		<g>
			
				<linearGradient id="SVGID_34_" gradientUnits="userSpaceOnUse" x1="559.8252" y1="360.665" x2="563.8749" y2="355.6028" gradientTransform="matrix(0.6806 0.7327 -0.7327 0.6806 43.0879 -374.7525)">
				<stop  offset="0.0086" style="stop-color:#FFFFFF;stop-opacity:0"/>
				<stop  offset="1" style="stop-color:#F1E8E8"/>
			</linearGradient>
			<path fill="url(#SVGID_34_)" d="M169.999,265.292c0,0-8.088,7.889-9.355,12.03c-1.271,4.143,2.498,11.568,3.996,18.007
				c0,0,6.531-14.564,8.85-28.165L169.999,265.292z"/>
			
				<linearGradient id="SVGID_35_" gradientUnits="userSpaceOnUse" x1="568.0527" y1="362.2188" x2="566.4838" y2="353.6358" gradientTransform="matrix(0.6806 0.7327 -0.7327 0.6806 43.0879 -374.7525)">
				<stop  offset="0.0086" style="stop-color:#FFFFFF;stop-opacity:0"/>
				<stop  offset="1" style="stop-color:#F1E8E8"/>
			</linearGradient>
			<path opacity="0.8" fill="url(#SVGID_35_)" d="M169.995,270.868c0,0-3.754,16.185-1.711,21.558
				c2.046,5.374,7.025-9.438,5.805-26.933c0.002-0.027,0.004-0.051-0.002-0.082l-2.152-0.645L169.995,270.868z"/>
			
				<linearGradient id="SVGID_36_" gradientUnits="userSpaceOnUse" x1="574.0283" y1="360.833" x2="567.4404" y2="347.361" gradientTransform="matrix(0.6806 0.7327 -0.7327 0.6806 43.0879 -374.7525)">
				<stop  offset="0.0086" style="stop-color:#FFFFFF;stop-opacity:0"/>
				<stop  offset="1" style="stop-color:#F1E8E8"/>
			</linearGradient>
			<path fill="url(#SVGID_36_)" d="M172.985,266.151c0,0-2.133,20.031-1.812,22.697c0.318,2.67,2.361,4.14,2.965,4.649
				c0,0,4.775-9.911,5.158-12.694c0.382-2.777-4.146-16.528-4.146-16.528L172.985,266.151z"/>
			<path fill="none" stroke="#FFFFFF" stroke-width="0.2591" stroke-miterlimit="10" d="M165.823,289.78
				c-1.359-17.132,5.323-24.447,5.323-24.447s-10.976,6.838-16.08,15.272"/>
			<path fill="none" stroke="#FFFFFF" stroke-width="0.2591" stroke-miterlimit="10" d="M171.833,294.541
				c10.66-12.51,2.729-28.163,2.729-28.163S176.963,283.907,171.833,294.541z"/>
			<path opacity="0.8" fill="#EE4036" d="M170.085,274.135c-0.242,0.225-0.626,0.216-0.851-0.026
				c-0.226-0.249-0.214-0.629,0.029-0.854c0.246-0.227,0.628-0.213,0.853,0.029C170.347,273.525,170.331,273.907,170.085,274.135z"
				/>
			<path fill="#EE4036" d="M176.39,277.065c-0.152,0.14-0.391,0.13-0.527-0.019c-0.148-0.152-0.141-0.395,0.013-0.536
				c0.156-0.139,0.393-0.128,0.532,0.021C176.55,276.684,176.542,276.923,176.39,277.065z"/>
			<path opacity="0.8" fill="#BE1E2D" d="M170.98,281.601c-0.11,0.099-0.28,0.091-0.385-0.016c-0.101-0.112-0.093-0.283,0.011-0.385
				c0.113-0.103,0.287-0.096,0.389,0.014C171.097,281.324,171.091,281.494,170.98,281.601z"/>
			<path fill="none" stroke="#FFFFFF" stroke-width="0.2591" stroke-miterlimit="10" d="M167.331,295.498
				c6.121-12.12,7.369-28.611,7.369-28.611s9.789,9.541,7.328,21.458"/>
			
				<linearGradient id="SVGID_37_" gradientUnits="userSpaceOnUse" x1="558.6406" y1="341.7871" x2="555.735" y2="337.7706" gradientTransform="matrix(0.6806 0.7327 -0.7327 0.6806 43.0879 -374.7525)">
				<stop  offset="0.0086" style="stop-color:#EE4036"/>
				<stop  offset="1" style="stop-color:#BE1E2D"/>
			</linearGradient>
			<path fill="url(#SVGID_37_)" d="M169.962,261.64l-1.24,5.22c0,0,1.74-0.483,1.379,3.512c0,0,3.547-6.611,4.082-0.025
				c0,0,1.314-3.89,2.46-1.294l1.188-5.86c0,0-3.73,2.619-3.246-2.277C174.585,260.914,171.818,266.019,169.962,261.64z"/>
			<path fill="#BE1E2D" d="M173.019,268.245c-0.365,0.339-0.938,0.32-1.275-0.049c-0.343-0.364-0.318-0.936,0.045-1.274
				c0.368-0.34,0.939-0.321,1.279,0.046C173.403,267.334,173.384,267.905,173.019,268.245z"/>
			<path fill="#BE1E2D" d="M176.212,269.71c-0.496,0.35-1.188,0.231-1.535-0.265c-0.352-0.503-0.229-1.188,0.268-1.539
				c0.498-0.35,1.188-0.228,1.535,0.269C176.831,268.675,176.71,269.36,176.212,269.71z"/>
			<path fill="#EE4036" d="M174.753,270.383c-0.278,0.263-0.716,0.243-0.978-0.036c-0.259-0.282-0.243-0.715,0.034-0.979
				c0.281-0.256,0.723-0.242,0.979,0.036C175.045,269.685,175.036,270.122,174.753,270.383z"/>
			<path opacity="0.8" fill="#EE4036" d="M170.341,269.591c-0.24,0.227-0.621,0.212-0.848-0.024
				c-0.229-0.247-0.215-0.628,0.027-0.855c0.247-0.226,0.626-0.211,0.852,0.034C170.595,268.981,170.587,269.365,170.341,269.591z"
				/>
			<path fill="#BE1E2D" d="M171.339,270.688c-0.367,0.342-0.938,0.316-1.28-0.042c-0.335-0.369-0.317-0.942,0.048-1.282
				c0.367-0.338,0.938-0.32,1.279,0.051C171.723,269.78,171.705,270.351,171.339,270.688z"/>
		</g>
		
			<radialGradient id="SVGID_38_" cx="437.4238" cy="355.3848" r="6.6909" gradientTransform="matrix(-0.9116 -0.3515 0.7565 -1.9616 319.3912 1065.1212)" gradientUnits="userSpaceOnUse">
			<stop  offset="0.1881" style="stop-color:#EED56A"/>
			<stop  offset="0.3384" style="stop-color:#EED87C"/>
			<stop  offset="0.6405" style="stop-color:#F0DFAB"/>
			<stop  offset="0.9843" style="stop-color:#F1E8E8"/>
		</radialGradient>
		<path fill="url(#SVGID_38_)" d="M197.716,216.488c-3.314,8.596-9.488,14.222-13.791,12.562c-4.301-1.66-5.104-9.971-1.789-18.567
			c3.318-8.598,9.49-14.22,13.799-12.563C200.229,199.579,201.032,207.895,197.716,216.488z"/>
		<g>
			<path fill="#BE1E2D" d="M192.106,214.755c-1.056,0.74-2.523,0.486-3.271-0.579c-0.744-1.058-0.487-2.526,0.572-3.27
				c1.064-0.742,2.533-0.491,3.273,0.575C193.426,212.539,193.171,214.009,192.106,214.755z"/>
			<path fill="#BE1E2D" d="M188.358,220.609c-0.928,0.649-2.213,0.43-2.861-0.502c-0.652-0.929-0.426-2.213,0.498-2.866
				c0.93-0.646,2.221-0.425,2.869,0.503C189.513,218.674,189.286,219.959,188.358,220.609z"/>
			<path opacity="0.8" fill="#BE1E2D" d="M192.456,218.797c-1.353,0.951-3.24,0.625-4.195-0.736
				c-0.949-1.359-0.623-3.241,0.737-4.197c1.361-0.948,3.243-0.621,4.199,0.739C194.148,215.96,193.813,217.839,192.456,218.797z"/>
			<path opacity="0.8" fill="#BE1E2D" d="M186.567,215.06c-0.918,0.646-2.195,0.427-2.848-0.498
				c-0.643-0.923-0.42-2.198,0.504-2.845c0.92-0.647,2.197-0.424,2.844,0.5C187.711,213.14,187.485,214.413,186.567,215.06z"/>
			<path fill="#EE4036" d="M191.823,220.216c-0.555,0.388-1.326,0.254-1.717-0.305c-0.388-0.555-0.256-1.326,0.3-1.714
				c0.554-0.395,1.326-0.257,1.72,0.3C192.517,219.058,192.379,219.823,191.823,220.216z"/>
			<path fill="#EE4036" d="M185.951,221.448c-0.616,0.43-1.479,0.279-1.911-0.339c-0.437-0.619-0.283-1.474,0.335-1.909
				c0.616-0.434,1.476-0.281,1.909,0.334C186.718,220.155,186.568,221.009,185.951,221.448z"/>
			<path fill="#EE4036" d="M187.466,229.532c-0.577,0.233-1.24-0.042-1.477-0.617c-0.232-0.579,0.039-1.239,0.623-1.48
				c0.572-0.232,1.236,0.041,1.473,0.622C188.321,228.631,188.039,229.296,187.466,229.532z"/>
			<path fill="#BE1E2D" d="M186.374,229.788c-0.32,0.221-0.768,0.147-0.988-0.174c-0.23-0.326-0.149-0.77,0.17-0.993
				c0.324-0.228,0.772-0.148,0.992,0.177C186.773,229.115,186.694,229.564,186.374,229.788z"/>
			<path fill="#BE1E2D" d="M185.632,224.544c-0.291,0.203-0.691,0.132-0.894-0.156c-0.204-0.29-0.136-0.692,0.157-0.894
				c0.287-0.206,0.687-0.132,0.891,0.156C185.987,223.94,185.919,224.339,185.632,224.544z"/>
			<path fill="#BE1E2D" d="M190.659,224.249c-0.762,0.534-1.822,0.352-2.357-0.415c-0.533-0.767-0.35-1.816,0.414-2.362
				c0.766-0.535,1.822-0.35,2.361,0.422C191.612,222.653,191.423,223.71,190.659,224.249z"/>
			<path fill="#BE1E2D" d="M194.479,216.529c-0.447,0.316-1.073,0.203-1.387-0.245c-0.316-0.449-0.205-1.065,0.244-1.384
				c0.45-0.317,1.07-0.21,1.388,0.242C195.038,215.592,194.927,216.21,194.479,216.529z"/>
			<path fill="#BE1E2D" d="M182.878,219.271c-0.311,0.222-0.748,0.147-0.969-0.17c-0.221-0.314-0.148-0.752,0.166-0.975
				s0.754-0.146,0.978,0.174C183.272,218.614,183.196,219.049,182.878,219.271z"/>
			<path fill="#EE4036" d="M185.742,233.372c-0.319,0.224-0.755,0.145-0.978-0.168c-0.223-0.32-0.148-0.759,0.172-0.982
				c0.316-0.221,0.752-0.143,0.975,0.175C186.133,232.714,186.058,233.147,185.742,233.372z"/>
			<path fill="#EE4036" d="M175.397,260.174c-0.516,0.364-1.233,0.24-1.594-0.278c-0.356-0.518-0.238-1.231,0.281-1.594
				c0.516-0.361,1.231-0.235,1.588,0.282C176.036,259.097,175.911,259.811,175.397,260.174z"/>
			<path fill="#BE1E2D" d="M185.497,236.699c-0.26,0.177-0.619,0.116-0.803-0.147c-0.185-0.26-0.117-0.62,0.139-0.801
				c0.261-0.184,0.623-0.119,0.811,0.141C185.819,236.156,185.76,236.511,185.497,236.699z"/>
			<path fill="#BE1E2D" d="M174.328,258.514c-0.263,0.182-0.628,0.119-0.808-0.143c-0.18-0.261-0.115-0.622,0.143-0.806
				c0.264-0.182,0.624-0.117,0.805,0.144C174.652,257.97,174.587,258.329,174.328,258.514z"/>
			<path fill="#EE4036" d="M183.325,242.56c-0.213,0.146-0.494,0.091-0.641-0.116c-0.146-0.205-0.098-0.495,0.108-0.642
				c0.212-0.143,0.497-0.091,0.646,0.116C183.585,242.123,183.534,242.411,183.325,242.56z"/>
			<path fill="#EE4036" d="M176.917,257.773c-0.207,0.146-0.496,0.096-0.642-0.114c-0.146-0.211-0.097-0.496,0.114-0.643
				c0.205-0.144,0.492-0.096,0.641,0.113C177.173,257.34,177.128,257.623,176.917,257.773z"/>
			<path fill="#EE4036" d="M177.185,250.635c-0.156,0.109-0.374,0.067-0.481-0.087c-0.112-0.153-0.073-0.371,0.083-0.481
				c0.159-0.11,0.371-0.07,0.482,0.087C177.376,250.308,177.339,250.522,177.185,250.635z"/>
			<path fill="#3B2314" d="M198.435,205.361c-0.525,1.489-2.955,1.979-5.428,1.108c-2.469-0.879-4.049-2.789-3.523-4.273
				s2.951-1.977,5.424-1.103C197.38,201.966,198.956,203.878,198.435,205.361z"/>
			<path fill="#EE4036" d="M185.411,216.39c-0.412,0.286-0.983,0.186-1.271-0.226c-0.285-0.415-0.188-0.982,0.223-1.274
				c0.413-0.286,0.984-0.188,1.271,0.228C185.925,215.527,185.822,216.098,185.411,216.39z"/>
			<path fill="#EE4036" d="M188.065,225.729c-0.334,0.235-0.8,0.155-1.037-0.184c-0.234-0.333-0.152-0.797,0.179-1.031
				c0.339-0.235,0.802-0.153,1.042,0.183C188.482,225.028,188.401,225.493,188.065,225.729z"/>
			<path fill="#EE4036" d="M185.03,226.003c-0.557,0.393-1.326,0.254-1.721-0.304c-0.392-0.557-0.254-1.337,0.299-1.723
				c0.562-0.396,1.336-0.259,1.73,0.302C185.729,224.837,185.595,225.609,185.03,226.003z"/>
			<path fill="#EE4036" d="M183.569,229.822c-0.244,0.168-0.588,0.113-0.762-0.135c-0.175-0.247-0.109-0.59,0.131-0.758
				c0.248-0.178,0.592-0.12,0.76,0.129C183.876,229.305,183.817,229.652,183.569,229.822z"/>
			<path fill="#EE4036" d="M193.159,210.28c-0.278,0.201-0.672,0.129-0.871-0.15c-0.199-0.281-0.132-0.674,0.152-0.873
				c0.279-0.197,0.672-0.13,0.873,0.152C193.509,209.691,193.446,210.085,193.159,210.28z"/>
			<path fill="#EE4036" d="M196.515,215.208c-0.162,0.108-0.387,0.072-0.5-0.094c-0.109-0.162-0.068-0.383,0.09-0.496
				c0.162-0.113,0.385-0.076,0.496,0.087C196.717,214.864,196.677,215.09,196.515,215.208z"/>
			<path fill="#EE4036" d="M185.53,205.553c-0.14,0.096-0.34,0.065-0.439-0.079c-0.102-0.143-0.07-0.346,0.076-0.443
				c0.143-0.101,0.34-0.068,0.443,0.078C185.71,205.25,185.677,205.452,185.53,205.553z"/>
			<path fill="#EE4036" d="M195.128,208.833c-0.143,0.1-0.344,0.063-0.445-0.078c-0.1-0.146-0.062-0.345,0.08-0.444
				c0.139-0.106,0.344-0.064,0.445,0.078C195.304,208.528,195.274,208.728,195.128,208.833z"/>
			<path fill="#EE4036" d="M195.394,217.329c-0.357,0.249-0.848,0.16-1.096-0.193c-0.254-0.358-0.167-0.846,0.189-1.101
				c0.354-0.247,0.85-0.163,1.098,0.195C195.833,216.587,195.749,217.08,195.394,217.329z"/>
			<path fill="#EE4036" d="M188.665,216.723c-0.409,0.283-0.984,0.187-1.273-0.226s-0.186-0.98,0.225-1.273
				c0.413-0.285,0.979-0.186,1.271,0.225C189.173,215.859,189.077,216.434,188.665,216.723z"/>
			<path fill="#EE4036" d="M188.782,211.147c-0.569,0.396-1.357,0.261-1.757-0.31c-0.405-0.573-0.261-1.363,0.31-1.766
				c0.57-0.397,1.357-0.261,1.759,0.314C189.492,209.955,189.354,210.745,188.782,211.147z"/>
			<path fill="#EE4036" d="M194.577,213.359c-0.643,0.449-1.535,0.298-1.982-0.347c-0.455-0.646-0.299-1.534,0.348-1.982
				c0.641-0.452,1.529-0.297,1.983,0.346C195.376,212.02,195.22,212.911,194.577,213.359z"/>
			<path fill="#EE4036" d="M187.519,208.018c-0.304,0.208-0.721,0.134-0.936-0.168c-0.21-0.302-0.141-0.721,0.164-0.934
				c0.305-0.21,0.723-0.138,0.934,0.165C187.892,207.388,187.821,207.804,187.519,208.018z"/>
		</g>
		<g>
			<path fill="#EE4036" d="M185.937,225.812c0,0-0.209,0.608-0.576,1.674c-0.377,1.062-0.872,2.595-1.457,4.436
				c-0.293,0.92-0.611,1.917-0.948,2.971c-0.312,1.062-0.751,2.146-0.985,3.34c-0.184,1.211-0.664,2.365-1.061,3.568
				c-0.416,1.197-0.875,2.401-1.32,3.611c-0.455,1.206-0.867,2.426-1.279,3.625c-0.396,1.204-0.758,2.398-1.096,3.558
				c-0.615,2.335-1.281,4.486-1.844,6.334c-1.105,3.699-1.901,6.151-1.901,6.151l-0.097-0.025c0,0,0.65-2.492,1.714-6.208
				c0.526-1.859,1.114-4.038,1.87-6.333c0.398-1.141,0.797-2.322,1.174-3.533c0.361-1.215,0.735-2.448,1.064-3.695
				c0.341-1.243,0.667-2.492,1.024-3.709c0.366-1.215,0.663-2.432,1.256-3.508c0.53-1.096,0.833-2.226,1.224-3.262
				c0.365-1.045,0.711-2.033,1.029-2.944c0.639-1.824,1.17-3.344,1.542-4.407c0.364-1.066,0.572-1.676,0.572-1.676L185.937,225.812z
				"/>
		</g>
	</g>
	<g>
		<path fill="none" stroke="#FFFFFF" stroke-width="0.2591" stroke-miterlimit="10" d="M94.968,119.801
			c-5.273,7.804-12.387,12.505-12.387,12.505s8.265-13.409,15.447-17.155"/>
		<path fill="none" stroke="#FFFFFF" stroke-width="0.2591" stroke-miterlimit="10" d="M89.048,148.261
			c0,0,7.372-0.281,15.715,6.529"/>
		<path fill="none" stroke="#FFFFFF" stroke-width="0.2591" stroke-miterlimit="10" d="M85.604,150.172c0,0,2.328,0.598,7.729,6.183
			"/>
		<path fill="none" stroke="#FFFFFF" stroke-width="0.2591" stroke-miterlimit="10" d="M74.927,136.706
			c0,0,7.674-6.881,4.781-21.605"/>
		<path fill="none" stroke="#FFFFFF" stroke-width="0.2591" stroke-miterlimit="10" d="M130.652,113.909
			c-13.661,24.758-28.368,23.167-28.368,23.167s15.569-2.383,22.031-19.056"/>
		<path fill="none" stroke="#FFFFFF" stroke-width="0.2591" stroke-miterlimit="10" d="M129.675,140.069
			c0,0-18.206-5.308-27.786-2.489"/>
		<g>
			
				<linearGradient id="SVGID_39_" gradientUnits="userSpaceOnUse" x1="465.748" y1="71.8379" x2="462.1867" y2="64.6146" gradientTransform="matrix(-0.1106 0.9938 -0.9938 -0.1106 224.5244 -318.0875)">
				<stop  offset="0" style="stop-color:#F1E8E8;stop-opacity:0"/>
				<stop  offset="1" style="stop-color:#F1E8E8"/>
			</linearGradient>
			<path fill="url(#SVGID_39_)" d="M102.18,137.62c0,0,5.031,0.111,9.017-3.938c0,0,0.164-0.945-1.026-1.634
				c0,0-4.065,3.89-7.578,3.698L102.18,137.62z"/>
			
				<linearGradient id="SVGID_40_" gradientUnits="userSpaceOnUse" x1="459.5537" y1="30.626" x2="446.6122" y2="22.8009" gradientTransform="matrix(-0.2491 0.9684 -0.9684 -0.2491 242.7412 -302.6504)">
				<stop  offset="0" style="stop-color:#F1E8E8;stop-opacity:0"/>
				<stop  offset="1" style="stop-color:#F1E8E8"/>
			</linearGradient>
			<path opacity="0.6" fill="url(#SVGID_40_)" d="M102.353,135.244c0,0,9.04-6.285,12.396-15.85c0,0-12.294,3.345-19.919,16.239
				L102.353,135.244z"/>
			
				<linearGradient id="SVGID_41_" gradientUnits="userSpaceOnUse" x1="460.0264" y1="31.0166" x2="448.6186" y2="24.1189" gradientTransform="matrix(-0.2491 0.9684 -0.9684 -0.2491 242.7412 -302.6504)">
				<stop  offset="0" style="stop-color:#F1E8E8;stop-opacity:0"/>
				<stop  offset="1" style="stop-color:#F1E8E8"/>
			</linearGradient>
			<path opacity="0.8" fill="url(#SVGID_41_)" d="M92.841,133.908c11.746-10.647,21.333-10.462,21.333-10.462
				c-5.492,10.603-12.514,12.482-12.514,12.482L92.841,133.908z"/>
			<path fill="none" stroke="#FFFFFF" stroke-width="0.2591" stroke-miterlimit="10" d="M97.284,135.154
				c0,0,8.044-7.836,11.864-17.854"/>
			<path fill="#EE4036" d="M111.466,133.809c-0.177,0.132-0.637-0.206-1.039-0.744c-0.399-0.547-0.584-1.082-0.409-1.211
				c0.169-0.13,0.631,0.203,1.032,0.741C111.454,133.141,111.636,133.683,111.466,133.809z"/>
		</g>
		<g>
			
				<linearGradient id="SVGID_42_" gradientUnits="userSpaceOnUse" x1="-66.2031" y1="211.6055" x2="-69.7645" y2="204.3822" gradientTransform="matrix(-0.393 -0.9196 -0.9196 0.393 269.5482 -6.1477)">
				<stop  offset="0" style="stop-color:#F1E8E8;stop-opacity:0"/>
				<stop  offset="1" style="stop-color:#F1E8E8"/>
			</linearGradient>
			<path fill="url(#SVGID_42_)" d="M101.298,136.963c0,0,4.785-1.562,9.771,1.171c0,0,0.432,0.854-0.512,1.856
				c0,0-5.016-2.548-8.324-1.353L101.298,136.963z"/>
			
				<linearGradient id="SVGID_43_" gradientUnits="userSpaceOnUse" x1="-48.3726" y1="244.9443" x2="-61.3131" y2="237.1199" gradientTransform="matrix(-0.518 -0.8554 -0.8554 0.518 283.1814 -27.5516)">
				<stop  offset="0" style="stop-color:#F1E8E8;stop-opacity:0"/>
				<stop  offset="1" style="stop-color:#F1E8E8"/>
			</linearGradient>
			<path opacity="0.6" fill="url(#SVGID_43_)" d="M102.155,139.19c0,0,10.461,3.406,16.439,11.589c0,0-12.732,0.352-23.76-9.794
				L102.155,139.19z"/>
			
				<linearGradient id="SVGID_44_" gradientUnits="userSpaceOnUse" x1="-47.9023" y1="245.3359" x2="-59.3111" y2="238.4376" gradientTransform="matrix(-0.518 -0.8554 -0.8554 0.518 283.1814 -27.5516)">
				<stop  offset="0" style="stop-color:#F1E8E8;stop-opacity:0"/>
				<stop  offset="1" style="stop-color:#F1E8E8"/>
			</linearGradient>
			<path opacity="0.8" fill="url(#SVGID_44_)" d="M93.428,143.212c14.323,6.806,23.447,3.861,23.447,3.861
				c-8.317-8.566-15.582-8.337-15.582-8.337L93.428,143.212z"/>
			<path fill="none" stroke="#FFFFFF" stroke-width="0.2591" stroke-miterlimit="10" d="M97.323,140.736
				c0,0,9.964,5.182,16.516,13.669"/>
			<path fill="#EE4036" d="M111.29,137.931c-0.204-0.072-0.551,0.382-0.779,1.02c-0.226,0.627-0.244,1.201-0.04,1.274
				c0.201,0.072,0.545-0.382,0.773-1.017C111.471,138.573,111.492,138.007,111.29,137.931z"/>
		</g>
		<g>
			<polygon fill="#F1E8E8" points="105.952,134.831 102.718,130.219 99.528,134.106 102.284,137.076 			"/>
			
				<ellipse transform="matrix(0.5216 0.8532 -0.8532 0.5216 162.9428 -25.9276)" fill="#3B2314" cx="104.59" cy="132.325" rx="2.903" ry="2.153"/>
		</g>
		<g>
			<polygon fill="#F1E8E8" points="107.316,139.732 105.288,144.984 101.255,141.976 103.217,138.439 			"/>
			<path fill="#3B2314" d="M107.472,139.727c-1.132-0.359-2.446,0.592-2.929,2.12c-0.481,1.529,0.05,3.059,1.18,3.413
				c1.133,0.357,2.448-0.591,2.929-2.116C109.132,141.613,108.602,140.082,107.472,139.727z"/>
		</g>
		<g>
			<path fill="#F1E8E8" d="M66.973,141.329c-0.197-0.238-3.018-3.517-2.772-4.364c0,0-7.805,0.354-9.292-0.547
				c0,0,3.875,2.091,8.372,1.932c0,0,0.622,2.595,1.281,5.128L66.973,141.329z"/>
			<path fill="#F1E8E8" d="M64.61,142.022l5.057-10.138c0,0,1.283-5.091-0.708-9.229c0,0,2.808,3.618,2.071,9.972l-4.149,9.401
				L64.61,142.022z"/>
			<path fill="#F1E8E8" d="M70.781,140.849c0,0,1.014-6.347,0.93-7.533c0,0-6.7-8.09-13.953-9.488c0,0,9.624,4.262,12.555,10.683
				l-1.72,6.702L70.781,140.849z"/>
			<path fill="#F1E8E8" d="M72.029,138.605c0,0,6.129-10.544,5.966-21.381c0,0-0.749,11.071-8.241,20.87L72.029,138.605z"/>
			
				<linearGradient id="SVGID_45_" gradientUnits="userSpaceOnUse" x1="462.96" y1="65.1104" x2="461.9446" y2="64.4335" gradientTransform="matrix(-0.2491 0.9684 -0.9684 -0.2491 242.7412 -302.6504)">
				<stop  offset="0" style="stop-color:#F1E8E8;stop-opacity:0"/>
				<stop  offset="1" style="stop-color:#F1E8E8"/>
			</linearGradient>
			<path fill="url(#SVGID_45_)" d="M58.577,124.773c0,0,2.631,0.792,4.484,1.737c1.853,0.946,6.948,6.369,6.948,6.369
				s0.653,3.666-2.461,0.535C65.854,131.717,63.705,127.647,58.577,124.773z"/>
			
				<linearGradient id="SVGID_46_" gradientUnits="userSpaceOnUse" x1="183.9658" y1="-169.1812" x2="183.035" y2="-169.8017" gradientTransform="matrix(-0.9851 0.1722 -0.1722 -0.9851 226.9663 -71.8278)">
				<stop  offset="0" style="stop-color:#F1E8E8;stop-opacity:0"/>
				<stop  offset="1" style="stop-color:#F1E8E8"/>
			</linearGradient>
			<path fill="url(#SVGID_46_)" d="M78.018,116.686c0,0,0.068,3.2-0.521,5.949c-0.432,2.035-2.941,8.951-2.941,8.951
				s-6.703,11.343-1.787-2.038C73.206,128.354,77.422,123.582,78.018,116.686z"/>
			
				<linearGradient id="SVGID_47_" gradientUnits="userSpaceOnUse" x1="311.5293" y1="-199.3818" x2="310.2473" y2="-200.2365" gradientTransform="matrix(-0.7284 0.3685 -0.3739 -0.7392 221.0558 -130.318)">
				<stop  offset="0" style="stop-color:#F1E8E8;stop-opacity:0"/>
				<stop  offset="1" style="stop-color:#F1E8E8"/>
			</linearGradient>
			<path fill="url(#SVGID_47_)" d="M68.598,121.793c0,0,0.837,2.103,1.373,3.739c1.855,5.607-0.81,15.719-0.81,15.719
				s-3.724,3.656-0.862-7.019C68.815,132.321,69.625,126.548,68.598,121.793z"/>
			
				<linearGradient id="SVGID_48_" gradientUnits="userSpaceOnUse" x1="473.0967" y1="66.8472" x2="471.8955" y2="66.697" gradientTransform="matrix(-0.2491 0.9684 -0.9684 -0.2491 242.7412 -302.6504)">
				<stop  offset="0" style="stop-color:#F1E8E8;stop-opacity:0"/>
				<stop  offset="1" style="stop-color:#F1E8E8"/>
			</linearGradient>
			<path fill="url(#SVGID_48_)" d="M65.392,141.556l-1.982-3.768c0,0-5.887-0.269-8.577-1.274c0,0,3.744,2.569,6.247,3.107
				C63.579,140.16,65.392,141.556,65.392,141.556z"/>
		</g>
		<g>
			<path fill="#F1E8E8" d="M71.435,148.489c-0.006,0.304-0.176,4.63,0.538,5.137c0,0-6.325,4.581-6.928,6.213
				c0,0,1.735-4.051,5.354-6.723c0,0-1.136-2.419-2.191-4.815L71.435,148.489z"/>
			<path fill="#F1E8E8" d="M69.153,149.414l10.276,4.793c0,0,4.161,3.184,5.177,7.66c0,0-0.059-4.57-4.584-9.09l-9.096-4.782
				L69.153,149.414z"/>
			<path fill="#F1E8E8" d="M74.717,146.492c0,0,4.737,4.34,5.41,5.322c0,0-0.209,10.498-5.015,16.11c0,0,4.879-9.325,3.18-16.179
				l-5.518-4.176L74.717,146.492z"/>
			<path fill="#F1E8E8" d="M77.091,147.476c0,0,11.353,4.44,17.967,13.026c0,0-7.47-8.2-19.439-11.217L77.091,147.476z"/>
			
				<linearGradient id="SVGID_49_" gradientUnits="userSpaceOnUse" x1="40.9619" y1="346.041" x2="39.9456" y2="345.3635" gradientTransform="matrix(-0.7975 -0.6033 -0.6033 0.7975 318.2075 -91.8769)">
				<stop  offset="0" style="stop-color:#F1E8E8;stop-opacity:0"/>
				<stop  offset="1" style="stop-color:#F1E8E8"/>
			</linearGradient>
			<path fill="url(#SVGID_49_)" d="M75.157,166.671c0,0,1.568-2.253,2.434-4.155c0.868-1.885,1.476-9.3,1.476-9.3
				s-1.77-3.273-2.264,1.118C76.538,156.706,77.383,161.235,75.157,166.671z"/>
			
				<linearGradient id="SVGID_50_" gradientUnits="userSpaceOnUse" x1="266.7979" y1="330.3994" x2="265.8645" y2="329.7772" gradientTransform="matrix(-0.8783 0.4781 0.4781 0.8783 163.2087 -262.5827)">
				<stop  offset="0" style="stop-color:#F1E8E8;stop-opacity:0"/>
				<stop  offset="1" style="stop-color:#F1E8E8"/>
			</linearGradient>
			<path fill="url(#SVGID_50_)" d="M95.409,160.91c0,0-1.937-2.554-4.103-4.335c-1.606-1.32-7.872-5.183-7.872-5.183
				s-12.31-4.706-0.137,2.71C84.391,154.77,90.654,155.877,95.409,160.91z"/>
			
				<linearGradient id="SVGID_51_" gradientUnits="userSpaceOnUse" x1="229.3125" y1="406.1973" x2="228.0296" y2="405.342" gradientTransform="matrix(-0.7996 0.1647 0.1671 0.8113 194.1245 -212.5082)">
				<stop  offset="0" style="stop-color:#F1E8E8;stop-opacity:0"/>
				<stop  offset="1" style="stop-color:#F1E8E8"/>
			</linearGradient>
			<path fill="url(#SVGID_51_)" d="M84.861,162.772c0,0-0.654-2.171-1.251-3.784c-2.035-5.545-10.41-11.802-10.41-11.802
				s-5.198-0.547,3.687,6.032C78.478,154.396,82.706,158.411,84.861,162.772z"/>
			
				<linearGradient id="SVGID_52_" gradientUnits="userSpaceOnUse" x1="51.1045" y1="347.7734" x2="49.902" y2="347.6231" gradientTransform="matrix(-0.7975 -0.6033 -0.6033 0.7975 318.2075 -91.8769)">
				<stop  offset="0" style="stop-color:#F1E8E8;stop-opacity:0"/>
				<stop  offset="1" style="stop-color:#F1E8E8"/>
			</linearGradient>
			<path fill="url(#SVGID_52_)" d="M70.053,149.289l0.794,4.182c0,0-4.437,3.879-5.922,6.34c0,0,1.335-4.339,2.956-6.318
				C69.505,151.513,70.053,149.289,70.053,149.289z"/>
		</g>
		<path fill="#F1E8E8" d="M98.243,133.433c0,0-12.149-1.881-15.662-1.127c-3.505,0.758-9.218,3.225-13.967,8.423l2.084,8.406
			c0,0,9.342,3.13,14.535,1.877c5.19-1.259,10.977-4.427,15.008-7.638C104.278,140.166,104.586,135.47,98.243,133.433z"/>
		<path fill="#F1E8E8" d="M71.501,139.166c0,0-22.712,4.13-44.942,14.467c0,0-0.094,2.773,2.443,5.81
			c0,0,19.652-0.595,44.313-10.722L71.501,139.166z"/>
		<g>
			
				<linearGradient id="SVGID_53_" gradientUnits="userSpaceOnUse" x1="499.8037" y1="112.2261" x2="503.8524" y2="107.1652" gradientTransform="matrix(-0.2491 0.9684 -0.9684 -0.2491 242.7412 -302.6504)">
				<stop  offset="0.0086" style="stop-color:#FFFFFF;stop-opacity:0"/>
				<stop  offset="1" style="stop-color:#F1E8E8"/>
			</linearGradient>
			<path fill="url(#SVGID_53_)" d="M28.177,153.573c0,0-11.01-2.539-15.178-1.369C8.824,153.368,4.613,160.557,0,165.293
				c0,0,15.79-2.372,28.485-7.771L28.177,153.573z"/>
			
				<linearGradient id="SVGID_54_" gradientUnits="userSpaceOnUse" x1="508.0322" y1="113.7808" x2="506.4633" y2="105.1975" gradientTransform="matrix(-0.2491 0.9684 -0.9684 -0.2491 242.7412 -302.6504)">
				<stop  offset="0.0086" style="stop-color:#FFFFFF;stop-opacity:0"/>
				<stop  offset="1" style="stop-color:#F1E8E8"/>
			</linearGradient>
			<path opacity="0.8" fill="url(#SVGID_54_)" d="M23.482,156.585c0,0-15.65,5.582-19.068,10.205
				c-3.418,4.622,11.737,0.813,25.803-9.66c0.02-0.014,0.044-0.029,0.067-0.048l-0.62-2.157L23.482,156.585z"/>
			
				<linearGradient id="SVGID_55_" gradientUnits="userSpaceOnUse" x1="514.0059" y1="112.3965" x2="507.4177" y2="98.924" gradientTransform="matrix(-0.2491 0.9684 -0.9684 -0.2491 242.7412 -302.6504)">
				<stop  offset="0.0086" style="stop-color:#FFFFFF;stop-opacity:0"/>
				<stop  offset="1" style="stop-color:#F1E8E8"/>
			</linearGradient>
			<path fill="url(#SVGID_55_)" d="M29.065,156.553c0,0-18.013,9.022-20.083,10.733c-2.072,1.712-2.208,4.219-2.308,5.013
				c0,0,10.923-1.339,13.471-2.52c2.543-1.176,11.668-12.416,11.668-12.416L29.065,156.553z"/>
			<path fill="none" stroke="#FFFFFF" stroke-width="0.2591" stroke-miterlimit="10" d="M5.312,163.287
				c13.682-10.392,23.448-8.721,23.448-8.721s-11.683-5.546-21.539-5.281"/>
			<path fill="none" stroke="#FFFFFF" stroke-width="0.2591" stroke-miterlimit="10" d="M4.551,170.919
				c16.283,2.216,25.177-12.916,25.177-12.916S16.274,169.488,4.551,170.919z"/>
			<path opacity="0.8" fill="#EE4036" d="M20.783,158.425c-0.326-0.082-0.521-0.41-0.436-0.734c0.083-0.318,0.411-0.514,0.732-0.431
				c0.323,0.084,0.516,0.411,0.435,0.733C21.432,158.316,21.103,158.513,20.783,158.425z"/>
			<path fill="#EE4036" d="M21.717,165.313c-0.197-0.049-0.323-0.255-0.269-0.456c0.047-0.201,0.258-0.327,0.46-0.274
				c0.199,0.053,0.32,0.258,0.267,0.463C22.129,165.245,21.921,165.367,21.717,165.313z"/>
			<path opacity="0.8" fill="#BE1E2D" d="M14.984,163.212c-0.146-0.04-0.232-0.185-0.199-0.334c0.041-0.146,0.188-0.232,0.335-0.193
				c0.143,0.035,0.232,0.185,0.196,0.331C15.278,163.163,15.129,163.247,14.984,163.212z"/>
			<path fill="none" stroke="#FFFFFF" stroke-width="0.2591" stroke-miterlimit="10" d="M1.313,167.648
				c13.508-1.395,28.06-9.255,28.06-9.255s-2.743,13.396-14.101,17.761"/>
			
				<linearGradient id="SVGID_56_" gradientUnits="userSpaceOnUse" x1="498.6162" y1="93.3501" x2="495.7109" y2="89.334" gradientTransform="matrix(-0.2491 0.9684 -0.9684 -0.2491 242.7412 -302.6504)">
				<stop  offset="0.0086" style="stop-color:#EE4036"/>
				<stop  offset="1" style="stop-color:#BE1E2D"/>
			</linearGradient>
			<path fill="url(#SVGID_56_)" d="M31.232,151.572l-5.068,1.776c0,0,1.35,1.204-2.208,3.058c0,0,7.477-0.591,2.224,3.421
				c0,0,3.986-0.993,2.418,1.375l5.572-2.172c0,0-4.219-1.725,0.165-3.959C34.335,155.071,28.549,155.5,31.232,151.572z"/>
			<path fill="#BE1E2D" d="M27.324,157.713c-0.488-0.123-0.776-0.615-0.65-1.1c0.123-0.485,0.614-0.774,1.098-0.647
				c0.485,0.122,0.774,0.615,0.649,1.096C28.3,157.547,27.804,157.837,27.324,157.713z"/>
			<path fill="#BE1E2D" d="M27.811,161.194c-0.56-0.234-0.83-0.875-0.6-1.438c0.229-0.567,0.874-0.837,1.438-0.608
				c0.561,0.233,0.833,0.878,0.598,1.439C29.017,161.152,28.374,161.421,27.811,161.194z"/>
			<path fill="#EE4036" d="M26.463,160.328c-0.372-0.094-0.594-0.473-0.501-0.843c0.096-0.369,0.471-0.593,0.845-0.498
				c0.367,0.095,0.595,0.477,0.495,0.84C27.205,160.2,26.831,160.424,26.463,160.328z"/>
			<path opacity="0.8" fill="#EE4036" d="M24.742,156.188c-0.321-0.08-0.509-0.41-0.435-0.732c0.084-0.318,0.414-0.516,0.735-0.435
				c0.317,0.084,0.518,0.414,0.429,0.736C25.391,156.075,25.064,156.271,24.742,156.188z"/>
			<path fill="#BE1E2D" d="M24.36,157.618c-0.485-0.124-0.778-0.62-0.656-1.099c0.125-0.484,0.619-0.778,1.101-0.649
				c0.485,0.121,0.777,0.613,0.652,1.099C25.331,157.45,24.838,157.743,24.36,157.618z"/>
		</g>
		
			<radialGradient id="SVGID_57_" cx="492.0527" cy="185.3965" r="6.6909" gradientTransform="matrix(-0.1966 -0.9571 2.0594 -0.423 -203.4167 691.7532)" gradientUnits="userSpaceOnUse">
			<stop  offset="0.1881" style="stop-color:#EED56A"/>
			<stop  offset="0.3384" style="stop-color:#EED87C"/>
			<stop  offset="0.6405" style="stop-color:#F0DFAB"/>
			<stop  offset="0.9843" style="stop-color:#F1E8E8"/>
		</radialGradient>
		<path fill="url(#SVGID_57_)" d="M84.219,150.542c-9.024,1.852-17.092-0.306-18.021-4.82c-0.928-4.517,5.632-9.682,14.663-11.536
			c9.02-1.854,17.091,0.301,18.022,4.822C99.804,143.519,93.241,148.686,84.219,150.542z"/>
		<g>
			<path fill="#BE1E2D" d="M82.65,144.889c-1.195-0.491-1.771-1.868-1.284-3.071c0.489-1.198,1.861-1.774,3.063-1.281
				c1.202,0.49,1.779,1.863,1.285,3.063C85.226,144.8,83.851,145.374,82.65,144.889z"/>
			<path fill="#BE1E2D" d="M75.698,144.891c-1.05-0.427-1.559-1.629-1.124-2.68c0.43-1.048,1.63-1.554,2.68-1.125
				c1.049,0.433,1.552,1.638,1.123,2.683C77.949,144.817,76.743,145.32,75.698,144.891z"/>
			<path opacity="0.8" fill="#BE1E2D" d="M79.435,147.365c-1.532-0.634-2.274-2.394-1.643-3.93c0.629-1.535,2.388-2.275,3.927-1.646
				c1.535,0.627,2.273,2.39,1.647,3.927C82.735,147.251,80.974,147.988,79.435,147.365z"/>
			<path opacity="0.8" fill="#BE1E2D" d="M79.4,140.389c-1.043-0.428-1.545-1.623-1.119-2.665c0.427-1.039,1.622-1.543,2.667-1.119
				c1.041,0.43,1.542,1.623,1.114,2.666C81.633,140.312,80.439,140.817,79.4,140.389z"/>
			<path fill="#EE4036" d="M77.897,147.593c-0.625-0.256-0.929-0.979-0.673-1.606c0.259-0.626,0.981-0.933,1.608-0.676
				c0.627,0.258,0.932,0.979,0.669,1.61C79.251,147.545,78.532,147.852,77.897,147.593z"/>
			<path fill="#EE4036" d="M73.692,143.315c-0.699-0.288-1.036-1.089-0.752-1.787c0.288-0.699,1.089-1.036,1.79-0.749
				c0.695,0.283,1.037,1.087,0.75,1.788C75.192,143.267,74.389,143.602,73.692,143.315z"/>
			<path fill="#EE4036" d="M67.705,148.959c-0.508-0.36-0.636-1.061-0.279-1.577c0.362-0.509,1.068-0.637,1.578-0.274
				c0.51,0.355,0.635,1.062,0.278,1.578C68.923,149.194,68.216,149.316,67.705,148.959z"/>
			<path fill="#BE1E2D" d="M66.901,148.182c-0.357-0.151-0.539-0.569-0.389-0.927c0.15-0.371,0.563-0.544,0.928-0.396
				c0.365,0.148,0.54,0.571,0.391,0.932C67.681,148.154,67.263,148.329,66.901,148.182z"/>
			<path fill="#BE1E2D" d="M70.911,144.723c-0.33-0.138-0.483-0.511-0.35-0.838c0.136-0.326,0.509-0.482,0.835-0.347
				c0.33,0.124,0.481,0.507,0.351,0.831C71.614,144.699,71.243,144.854,70.911,144.723z"/>
			<path fill="#BE1E2D" d="M73.876,148.795c-0.86-0.352-1.279-1.349-0.927-2.207c0.354-0.865,1.344-1.277,2.213-0.929
				c0.862,0.352,1.279,1.345,0.921,2.211C75.731,148.729,74.741,149.146,73.876,148.795z"/>
			<path fill="#BE1E2D" d="M82.435,147.841c-0.502-0.21-0.751-0.789-0.541-1.3c0.207-0.51,0.79-0.753,1.299-0.545
				c0.503,0.209,0.75,0.791,0.541,1.301C83.527,147.803,82.943,148.045,82.435,147.841z"/>
			<path fill="#BE1E2D" d="M73.861,139.558c-0.355-0.145-0.525-0.554-0.38-0.913c0.146-0.354,0.553-0.526,0.908-0.381
				c0.362,0.142,0.533,0.555,0.382,0.912C74.626,139.532,74.216,139.702,73.861,139.558z"/>
			<path fill="#EE4036" d="M63.542,149.585c-0.361-0.146-0.533-0.56-0.386-0.917c0.146-0.358,0.557-0.531,0.915-0.383
				c0.355,0.146,0.533,0.56,0.386,0.916C64.308,149.56,63.898,149.728,63.542,149.585z"/>
			<path fill="#EE4036" d="M35.396,155.354c-0.581-0.234-0.865-0.907-0.626-1.488c0.242-0.583,0.906-0.865,1.495-0.629
				c0.583,0.241,0.864,0.91,0.624,1.492C36.649,155.311,35.977,155.593,35.396,155.354z"/>
			<path fill="#BE1E2D" d="M60.61,151.174c-0.29-0.12-0.433-0.456-0.31-0.756c0.117-0.293,0.456-0.436,0.751-0.313
				c0.294,0.118,0.436,0.457,0.316,0.759C61.244,151.152,60.909,151.289,60.61,151.174z"/>
			<path fill="#BE1E2D" d="M36.218,153.561c-0.296-0.125-0.439-0.46-0.315-0.761c0.123-0.288,0.462-0.431,0.749-0.312
				c0.298,0.124,0.443,0.458,0.322,0.754C36.85,153.539,36.515,153.676,36.218,153.561z"/>
			<path fill="#EE4036" d="M54.505,152.51c-0.233-0.094-0.346-0.36-0.249-0.6c0.095-0.235,0.365-0.351,0.597-0.255
				c0.236,0.101,0.352,0.367,0.253,0.604C55.012,152.493,54.744,152.608,54.505,152.51z"/>
			<path fill="#EE4036" d="M38.241,155.338c-0.236-0.095-0.348-0.368-0.253-0.6c0.097-0.235,0.367-0.353,0.603-0.252
				c0.235,0.096,0.349,0.362,0.249,0.598C38.745,155.321,38.477,155.433,38.241,155.338z"/>
			<path fill="#EE4036" d="M44.391,151.704c-0.175-0.075-0.255-0.277-0.187-0.451c0.073-0.176,0.275-0.262,0.452-0.189
				c0.176,0.075,0.26,0.272,0.188,0.449C44.77,151.693,44.569,151.78,44.391,151.704z"/>
			<path fill="#3B2314" d="M93.967,145.138c-1.533,0.36-3.255-1.418-3.859-3.974c-0.598-2.553,0.154-4.915,1.689-5.276
				c1.536-0.354,3.262,1.422,3.859,3.973C96.256,142.416,95.501,144.772,93.967,145.138z"/>
			<path fill="#EE4036" d="M77.655,140.131c-0.463-0.188-0.686-0.726-0.5-1.188c0.197-0.467,0.726-0.689,1.198-0.501
				c0.461,0.192,0.686,0.725,0.496,1.192C78.657,140.101,78.121,140.322,77.655,140.131z"/>
			<path fill="#EE4036" d="M71.23,147.407c-0.38-0.152-0.564-0.581-0.407-0.966c0.152-0.378,0.588-0.562,0.967-0.407
				c0.378,0.154,0.561,0.591,0.409,0.971C72.04,147.385,71.608,147.566,71.23,147.407z"/>
			<path fill="#EE4036" d="M69.362,145.007c-0.634-0.26-0.939-0.982-0.677-1.615c0.257-0.627,0.984-0.934,1.614-0.678
				c0.633,0.258,0.933,0.984,0.678,1.615C70.721,144.964,69.995,145.265,69.362,145.007z"/>
			<path fill="#EE4036" d="M65.358,145.839c-0.279-0.117-0.415-0.436-0.298-0.718c0.111-0.273,0.433-0.409,0.708-0.291
				c0.281,0.108,0.418,0.427,0.301,0.707C65.953,145.818,65.636,145.951,65.358,145.839z"/>
			<path fill="#EE4036" d="M86.979,143.352c-0.314-0.127-0.47-0.497-0.343-0.813c0.134-0.32,0.499-0.473,0.82-0.341
				c0.316,0.133,0.471,0.494,0.342,0.814C87.667,143.333,87.297,143.484,86.979,143.352z"/>
			<path fill="#EE4036" d="M84.648,148.836c-0.179-0.075-0.27-0.285-0.193-0.472c0.076-0.177,0.284-0.267,0.467-0.19
				c0.186,0.072,0.27,0.282,0.194,0.466C85.044,148.82,84.836,148.913,84.648,148.836z"/>
			<path fill="#EE4036" d="M86.841,134.38c-0.163-0.065-0.239-0.249-0.171-0.415c0.062-0.162,0.252-0.24,0.414-0.173
				c0.16,0.066,0.24,0.25,0.175,0.415C87.193,134.366,87.005,134.447,86.841,134.38z"/>
			<path fill="#EE4036" d="M89.263,144.229c-0.164-0.069-0.239-0.255-0.175-0.419c0.069-0.164,0.253-0.237,0.416-0.168
				c0.163,0.063,0.244,0.249,0.174,0.412C89.611,144.214,89.432,144.293,89.263,144.229z"/>
			<path fill="#EE4036" d="M82.257,149.038c-0.401-0.163-0.596-0.627-0.43-1.025c0.163-0.406,0.623-0.599,1.027-0.436
				c0.403,0.166,0.598,0.627,0.427,1.031C83.119,149.008,82.658,149.202,82.257,149.038z"/>
			<path fill="#EE4036" d="M79.134,143.049c-0.465-0.188-0.688-0.726-0.498-1.189c0.189-0.467,0.724-0.693,1.187-0.502
				c0.471,0.19,0.692,0.728,0.503,1.192C80.134,143.011,79.597,143.241,79.134,143.049z"/>
			<path fill="#EE4036" d="M83.892,140.143c-0.646-0.268-0.963-1.007-0.694-1.652c0.266-0.649,1.005-0.957,1.652-0.692
				c0.645,0.263,0.954,1.001,0.69,1.648C85.271,140.091,84.534,140.399,83.892,140.143z"/>
			<path fill="#EE4036" d="M85.156,146.209c-0.727-0.301-1.078-1.132-0.779-1.858c0.298-0.726,1.13-1.077,1.856-0.777
				c0.727,0.297,1.079,1.132,0.776,1.857C86.715,146.158,85.877,146.507,85.156,146.209z"/>
			<path fill="#EE4036" d="M85.84,137.386c-0.339-0.14-0.504-0.538-0.364-0.877c0.138-0.344,0.528-0.509,0.87-0.371
				c0.342,0.144,0.511,0.533,0.369,0.877C86.572,137.357,86.178,137.522,85.84,137.386z"/>
		</g>
		<g>
			<path fill="#EE4036" d="M70.005,145.664c0,0-0.625,0.152-1.72,0.419c-1.097,0.257-2.653,0.668-4.519,1.17
				c-0.933,0.25-1.943,0.521-3.013,0.807c-1.062,0.311-2.211,0.527-3.343,0.975c-1.118,0.499-2.348,0.719-3.575,1.035
				c-1.231,0.297-2.493,0.561-3.751,0.84c-1.261,0.268-2.51,0.58-3.741,0.882c-1.228,0.316-2.427,0.657-3.585,0.999
				c-2.298,0.744-4.468,1.346-6.326,1.87c-3.71,1.068-6.204,1.724-6.204,1.724l-0.03-0.096c0,0,2.448-0.799,6.149-1.911
				c1.849-0.562,3.999-1.244,6.338-1.848c1.175-0.281,2.385-0.584,3.607-0.921c1.218-0.352,2.457-0.703,3.684-1.1
				c1.23-0.385,2.458-0.785,3.675-1.143c1.22-0.347,2.404-0.755,3.629-0.837c1.209-0.146,2.323-0.501,3.406-0.733
				c1.077-0.256,2.094-0.499,3.034-0.723c1.879-0.448,3.444-0.821,4.541-1.083c1.094-0.27,1.719-0.424,1.719-0.424L70.005,145.664z"
				/>
		</g>
	</g>
</g>
</svg>
