<?xml version="1.0" encoding="utf-8"?>
<!-- Generator: Adobe Illustrator 16.0.4, SVG Export Plug-In . SVG Version: 6.00 Build 0)  -->
<!DOCTYPE svg PUBLIC "-//W3C//DTD SVG 1.1//EN" "http://www.w3.org/Graphics/SVG/1.1/DTD/svg11.dtd">
<svg version="1.1" id="Layer_1" xmlns="http://www.w3.org/2000/svg" xmlns:xlink="http://www.w3.org/1999/xlink" x="0px" y="0px"
	 width="21.998px" height="27.336px" viewBox="7.487 7.5 21.998 27.336" enable-background="new 7.487 7.5 21.998 27.336"
	 xml:space="preserve">
<path fill="#FFFFFF" d="M21.775,32.266l7.046-7.709c0.886-0.966,0.886-2.533,0-3.499l-0.087-0.096c-0.884-0.967-2.317-0.967-3.2,0
	l-4.722,5.163V10.11c0-1.439-1.069-2.609-2.387-2.609c-1.25,0-2.264,1.107-2.264,2.475v16.15l-4.721-5.163
	c-0.885-0.967-2.317-0.967-3.202,0L8.15,21.058c-0.884,0.966-0.884,2.533,0,3.499l7.046,7.709l1.688,1.847
	c0.424,0.464,0.999,0.724,1.6,0.724c0.601,0,1.178-0.261,1.6-0.724L21.775,32.266z"/>
</svg>
