<?xml version="1.0" encoding="utf-8"?>
<!-- Generator: Adobe Illustrator 16.0.4, SVG Export Plug-In . SVG Version: 6.00 Build 0)  -->
<!DOCTYPE svg PUBLIC "-//W3C//DTD SVG 1.1//EN" "http://www.w3.org/Graphics/SVG/1.1/DTD/svg11.dtd">
<svg version="1.1" id="Layer_1" xmlns="http://www.w3.org/2000/svg" xmlns:xlink="http://www.w3.org/1999/xlink" x="0px" y="0px"
	 width="180.025px" height="157.201px" viewBox="0 0 180.025 157.201" enable-background="new 0 0 180.025 157.201"
	 xml:space="preserve">
<g opacity="0.3">
	<polygon fill="#FFFFFF" points="0,0 58.305,78.537 0,157.201 40.971,157.201 99.275,78.537 40.971,0 	"/>
	<polygon fill="#FFFFFF" points="80.773,0 139.076,78.537 80.773,157.201 121.744,157.201 180.025,78.537 121.744,0 	"/>
</g>
</svg>
