<?xml version="1.0" encoding="utf-8"?>
<!-- Generator: Adobe Illustrator 16.0.4, SVG Export Plug-In . SVG Version: 6.00 Build 0)  -->
<!DOCTYPE svg PUBLIC "-//W3C//DTD SVG 1.1 Tiny//EN" "http://www.w3.org/Graphics/SVG/1.1/DTD/svg11-tiny.dtd">
<svg version="1.1" baseProfile="tiny" id="Layer_1" xmlns="http://www.w3.org/2000/svg" xmlns:xlink="http://www.w3.org/1999/xlink"
	 x="0px" y="0px" width="165.942px" height="165.098px" viewBox="0 0 165.942 165.098" xml:space="preserve">
<g>
	<polygon fill="none" points="136.581,46.636 136.581,16.667 112.284,1.762 87.986,16.667 87.986,46.636 112.284,61.541 	"/>
	<path fill="none" d="M30.867,118.459v29.97c8.096,4.969,16.196,9.938,24.297,14.903l24.297-14.903v-29.97
		c-8.1-4.967-16.199-9.936-24.297-14.904L30.867,118.459z"/>
	<polygon fill="none" points="1.504,67.25 1.504,97.222 25.8,112.124 50.098,97.222 50.098,67.25 25.8,52.348 	"/>
	<polygon fill="none" points="58.674,67.25 58.674,97.222 82.972,112.124 107.268,97.222 107.268,67.25 82.972,52.348 	"/>
	<polygon fill="none" points="115.846,67.25 115.846,97.222 140.143,112.124 164.439,97.222 164.439,67.25 140.143,52.348 	"/>
	<path fill="#FBBD16" d="M55.164,102.381l-25.297,15.518v31.091l0.238,0.146c8.263,5.07,16.53,10.143,24.797,15.211l0.261,0.16
		l15.776-9.677l9.521-5.84v-31.091l-0.239-0.146c-8.267-5.068-16.532-10.14-24.796-15.211L55.164,102.381z M79.461,148.429
		l-24.297,14.903c-8.101-4.965-16.201-9.935-24.297-14.903v-29.97l24.297-14.904c8.098,4.969,16.197,9.938,24.297,14.904V148.429z"
		/>
	<path fill="#FBBD16" d="M57.674,66.691v31.091l25.298,15.516l25.296-15.516V66.691L82.972,51.175L57.674,66.691z M107.268,97.222
		l-24.296,14.902L58.674,97.222V67.25l24.298-14.902l24.296,14.902V97.222z"/>
	<path fill="#FBBD16" d="M0.504,66.691v31.091L25.8,113.298l25.298-15.516V66.691L25.8,51.175L0.504,66.691z M50.098,97.222
		L25.8,112.124L1.504,97.222V67.25L25.8,52.348L50.098,67.25V97.222z"/>
	<path fill="#FBBD16" d="M114.846,66.691v31.091l25.297,15.516l25.297-15.516V66.691l-25.297-15.516L114.846,66.691z
		 M164.439,97.222l-24.297,14.902l-24.297-14.902V67.25l24.297-14.902l24.297,14.902V97.222z"/>
	<path fill="#FBBD16" d="M137.581,47.196V16.107L112.284,0.589L86.986,16.107v31.089l25.298,15.518L137.581,47.196z M87.986,16.667
		l24.298-14.904l24.297,14.904v29.97l-24.297,14.904L87.986,46.636V16.667z"/>
</g>
</svg>
