<?xml version="1.0" encoding="utf-8"?>
<!-- Generator: Adobe Illustrator 16.0.4, SVG Export Plug-In . SVG Version: 6.00 Build 0)  -->
<!DOCTYPE svg PUBLIC "-//W3C//DTD SVG 1.1//EN" "http://www.w3.org/Graphics/SVG/1.1/DTD/svg11.dtd">
<svg version="1.1" id="Layer_1" xmlns="http://www.w3.org/2000/svg" xmlns:xlink="http://www.w3.org/1999/xlink" x="0px" y="0px"
	 width="13.183px" height="11.512px" viewBox="0 0 13.183 11.512" enable-background="new 0 0 13.183 11.512" xml:space="preserve">
<g>
    <polygon fill="#FFFFFF" points="0,0 4.3,5.8 0,11.5 3,11.5 7.3,5.8 3,0  "/>
</g>
</svg>
