<?xml version="1.0" encoding="utf-8"?>
<!-- Generator: Adobe Illustrator 16.0.4, SVG Export Plug-In . SVG Version: 6.00 Build 0)  -->
<!DOCTYPE svg PUBLIC "-//W3C//DTD SVG 1.1//EN" "http://www.w3.org/Graphics/SVG/1.1/DTD/svg11.dtd">
<svg version="1.1" id="Layer_1" xmlns="http://www.w3.org/2000/svg" xmlns:xlink="http://www.w3.org/1999/xlink" x="0px" y="0px"
	 width="960px" height="111.578px" viewBox="0 0 960 111.578" enable-background="new 0 0 960 111.578" xml:space="preserve">
<g opacity="0.3">
	<path fill="#FFFFFF" d="M0,1.851h26.536l23.323,73.047L75.115,1.542h21.229l25.254,73.356L144.919,1.85h25.898L132.373,110.5
		H110.82L85.409,39.917L59.994,110.5H38.44L0,1.851z"/>
	<path fill="#FFFFFF" d="M213.266,1.08h22.839l48.254,108.65h-25.896L248.17,85.531h-47.612l-10.294,24.197h-25.251L213.266,1.08z
		 M239.322,64.576l-14.96-34.987l-14.957,34.987H239.322z"/>
	<path fill="#FFFFFF" d="M313.455,23.733h-34.259V1.851h93.289v21.883h-34.261v85.997h-24.77L313.455,23.733L313.455,23.733z"/>
	<path fill="#FFFFFF" d="M391.463,1.851h84.923v21.117h-60.316v21.884h53.08v21.111h-53.08v22.654h61.122v21.111h-85.729V1.851
		L391.463,1.851z"/>
	<path fill="#FFFFFF" d="M499.219,1.851h51.472c14.312,0,25.41,3.856,32.812,10.941c6.271,6.014,9.646,14.49,9.646,24.66v0.309
		c0,17.411-9.812,28.354-24.129,33.438l27.505,38.532h-28.952l-24.121-34.524h-19.464v34.524h-24.77L499.219,1.851L499.219,1.851z
		 M549.08,54.251c12.061,0,18.978-6.165,18.978-15.257v-0.312c0-10.17-7.399-15.407-19.461-15.407h-24.607v30.976H549.08z"/>
	<path fill="#FFFFFF" d="M615.497,1.851h24.77v86.304H696.4v21.575h-80.902L615.497,1.851L615.497,1.851z"/>
	<path fill="#FFFFFF" d="M703.629,56.1v-0.307C703.629,25.125,728.876,0,763.62,0c34.742,0,59.677,24.812,59.677,55.479v0.314
		c0,30.668-25.255,55.785-59.997,55.785C728.554,111.578,703.629,86.768,703.629,56.1z M797.402,56.1v-0.307
		c0-18.497-14.157-33.909-34.104-33.909c-19.947,0-33.773,15.104-33.773,33.595v0.314c0,18.491,14.152,33.902,34.095,33.902
		C783.567,89.695,797.402,74.591,797.402,56.1z"/>
	<path fill="#FFFFFF" d="M840.331,56.1v-0.307C840.331,25.125,865.579,0,900.321,0C935.064,0,960,24.812,960,55.479v0.314
		c0,30.668-25.256,55.785-59.998,55.785S840.331,86.768,840.331,56.1z M934.104,56.1v-0.307c0-18.497-14.156-33.909-34.103-33.909
		c-19.947,0-33.775,15.104-33.775,33.595v0.314c0,18.491,14.155,33.902,34.096,33.902C920.268,89.695,934.104,74.591,934.104,56.1z"
		/>
</g>
</svg>
